%YAML 1.1
%TAG !u! tag:unity3d.com,2011:
--- !u!114 &11400000
MonoBehaviour:
  m_ObjectHideFlags: 0
  m_PrefabParentObject: {fileID: 0}
  m_PrefabInternal: {fileID: 0}
  m_GameObject: {fileID: 0}
  m_Enabled: 1
  m_EditorHideFlags: 0
  m_Script: {fileID: 11500000, guid: f0d98f5be51926f46bc797504da5ad22, type: 3}
  m_Name: block
  m_EditorClassIdentifier: 
  AtlasTexture: {fileID: 2800000, guid: e0c965c91e59e6841a28166f549a0d56, type: 3}
  TilePxSize: {x: 60, y: 60}
  SliceOffset: {x: 0, y: 13}
  SlicePadding: {x: 1, y: 1}
  BackgroundColor:
    r: 1
    g: 1
    b: 1
    a: 0.8039216
  VisualTileSize: {x: 45.6, y: 45.6}
  VisualTilePadding: 1
  TileRowLength: 4
  m_tileViews: []
  m_tilesetWidth: 4
  m_tilesetHeight: 4
  m_brushes: []
  m_tiles:
  - uv:
      x: 0
      y: 0.71484375
      width: 0.234375
      height: 0.234375
    collData:
      vertices: []
      type: 0
    paramContainer:
      m_paramList: []
    prefabData:
      prefab: {fileID: 1393590293333246, guid: 010f12dfd151ccd45abf49256979816f, type: 2}
      offset: {x: 0, y: 0, z: 0}
      offsetMode: 0
      showTileWithPrefab: 0
  - uv:
      x: 0.23828125
      y: 0.71484375
      width: 0.234375
      height: 0.234375
    collData:
      vertices: []
      type: 1
    paramContainer:
      m_paramList: []
    prefabData:
      prefab: {fileID: 0}
      offset: {x: 0, y: 0, z: 0}
      offsetMode: 0
      showTileWithPrefab: 0
  - uv:
      x: 0.4765625
      y: 0.71484375
      width: 0.234375
      height: 0.234375
    collData:
      vertices: []
      type: 0
    paramContainer:
      m_paramList: []
    prefabData:
      prefab: {fileID: 1020387549074230, guid: 2d915828d8548114b8fde6a5348ef4a8, type: 2}
      offset: {x: 0, y: 0, z: 0}
      offsetMode: 0
      showTileWithPrefab: 0
  - uv:
      x: 0.71484375
      y: 0.71484375
      width: 0.234375
      height: 0.234375
    collData:
      vertices: []
      type: 0
    paramContainer:
      m_paramList: []
    prefabData:
      prefab: {fileID: 1387379163566744, guid: 6e1c1c4217cf9a04d8aff2297a26a04b, type: 2}
      offset: {x: 0, y: 0, z: 0}
      offsetMode: 0
      showTileWithPrefab: 0
  - uv:
      x: 0
      y: 0.4765625
      width: 0.234375
      height: 0.234375
    collData:
      vertices: []
      type: 1
    paramContainer:
      m_paramList: []
    prefabData:
      prefab: {fileID: 0}
      offset: {x: 0, y: 0, z: 0}
      offsetMode: 0
      showTileWithPrefab: 0
  - uv:
      x: 0.23828125
      y: 0.4765625
      width: 0.234375
      height: 0.234375
    collData:
      vertices: []
      type: 1
    paramContainer:
      m_paramList: []
    prefabData:
      prefab: {fileID: 0}
      offset: {x: 0, y: 0, z: 0}
      offsetMode: 0
      showTileWithPrefab: 0
  - uv:
      x: 0.4765625
      y: 0.4765625
      width: 0.234375
      height: 0.234375
    collData:
      vertices: []
      type: 0
    paramContainer:
      m_paramList: []
    prefabData:
      prefab: {fileID: 1194196020441538, guid: 780585e2f6c4c104a98eb124abd555e5, type: 2}
      offset: {x: 0, y: 0, z: 0}
      offsetMode: 0
      showTileWithPrefab: 0
  - uv:
      x: 0.71484375
      y: 0.4765625
      width: 0.234375
      height: 0.234375
    collData:
      vertices: []
      type: 0
    paramContainer:
      m_paramList: []
    prefabData:
      prefab: {fileID: 1706683329245126, guid: 4a49e4066261b2544a52c3aa0cc742ed, type: 2}
      offset: {x: 0, y: 0, z: 0}
      offsetMode: 0
      showTileWithPrefab: 0
  - uv:
      x: 0
      y: 0.23828125
      width: 0.234375
      height: 0.234375
    collData:
      vertices: []
      type: 1
    paramContainer:
      m_paramList: []
    prefabData:
      prefab: {fileID: 0}
      offset: {x: 0, y: 0, z: 0}
      offsetMode: 0
      showTileWithPrefab: 0
  - uv:
      x: 0.23828125
      y: 0.23828125
      width: 0.234375
      height: 0.234375
    collData:
      vertices:
      - {x: 0, y: 0}
      - {x: 0, y: 1}
      - {x: 1, y: 1}
      - {x: 1, y: 0}
      type: 0
    paramContainer:
      m_paramList: []
    prefabData:
      prefab: {fileID: 1894814255189450, guid: bd92575edb0cbf044ab0150dce4ac696, type: 2}
      offset: {x: 0, y: 0, z: 0}
      offsetMode: 0
      showTileWithPrefab: 0
  - uv:
      x: 0.4765625
      y: 0.23828125
      width: 0.234375
      height: 0.234375
    collData:
      vertices:
      - {x: 0, y: 0}
      - {x: 0, y: 1}
      - {x: 1, y: -0}
      type: 0
    paramContainer:
      m_paramList: []
    prefabData:
      prefab: {fileID: 1321747529428198, guid: 2f8049929c504e24fa917018e307ca64, type: 2}
      offset: {x: 0, y: 0, z: 0}
      offsetMode: 0
      showTileWithPrefab: 0
  - uv:
      x: 0.71484375
      y: 0.23828125
      width: 0.234375
      height: 0.234375
    collData:
      vertices:
      - {x: 0, y: 0}
      - {x: 0, y: 1}
      - {x: 1, y: 1}
      - {x: 1, y: 0}
      type: 0
    paramContainer:
      m_paramList: []
    prefabData:
      prefab: {fileID: 1020387549074230, guid: b85231ca93d613a47b629ebbdf3f0dad, type: 2}
      offset: {x: 0, y: 0, z: 0}
      offsetMode: 0
      showTileWithPrefab: 0
  - uv:
      x: 0
      y: 0
      width: 0.234375
      height: 0.234375
    collData:
      vertices: []
      type: 1
    paramContainer:
      m_paramList: []
    prefabData:
      prefab: {fileID: 0}
      offset: {x: 0, y: 0, z: 0}
      offsetMode: 0
      showTileWithPrefab: 0
  - uv:
      x: 0.23828125
      y: 0
      width: 0.234375
      height: 0.234375
    collData:
      vertices: []
      type: 0
    paramContainer:
      m_paramList: []
    prefabData:
      prefab: {fileID: 1393590293333246, guid: 94b53f719236a27429b4b96890b9fdb0, type: 2}
      offset: {x: 0, y: 0, z: 0}
      offsetMode: 0
      showTileWithPrefab: 0
  - uv:
      x: 0.4765625
      y: 0
      width: 0.234375
      height: 0.234375
    collData:
      vertices: []
      type: 1
    paramContainer:
      m_paramList: []
    prefabData:
      prefab: {fileID: 0}
      offset: {x: 0, y: 0, z: 0}
      offsetMode: 0
      showTileWithPrefab: 0
  - uv:
      x: 0.71484375
      y: 0
      width: 0.234375
      height: 0.234375
    collData:
      vertices: []
      type: 1
    paramContainer:
      m_paramList: []
    prefabData:
      prefab: {fileID: 0}
      offset: {x: 0, y: 0, z: 0}
      offsetMode: 0
      showTileWithPrefab: 0
  m_pixelsPerUnit: 100
  m_brushGroupNames:
  - Default
  - 
  - 
  - 
  - 
  - 
  - 
  - 
  - 
  - 
  - 
  - 
  - 
  - 
  - 
  - 
  - 
  - 
  - 
  - 
  - 
  - 
  - 
  - 
  - 
  - 
  - 
  - 
  - 
  - 
  - 
  - 
  m_brushGroupAutotilingMatrix:
  - 1
  - 2
  - 4
  - 8
  - 16
  - 32
  - 64
  - 128
  - 256
  - 512
  - 1024
  - 2048
  - 4096
  - 8192
  - 16384
  - 32768
  - 65536
  - 131072
  - 262144
  - 524288
  - 1048576
  - 2097152
  - 4194304
  - 8388608
  - 16777216
  - 33554432
  - 67108864
  - 134217728
  - 268435456
  - 536870912
  - 1073741824
  m_brushTypeMaskOptions: []
  m_brushTypeMask: -1
