%YAML 1.1
%TAG !u! tag:unity3d.com,2011:
--- !u!1001 &100100000
Prefab:
  m_ObjectHideFlags: 1
  serializedVersion: 2
  m_Modification:
    m_TransformParent: {fileID: 0}
    m_Modifications: []
    m_RemovedComponents: []
  m_ParentPrefab: {fileID: 0}
  m_RootGameObject: {fileID: 1848507034425408}
  m_IsPrefabParent: 1
--- !u!1 &1848507034425408
GameObject:
  m_ObjectHideFlags: 0
  m_PrefabParentObject: {fileID: 0}
  m_PrefabInternal: {fileID: 100100000}
  serializedVersion: 5
  m_Component:
  - component: {fileID: 4718023832205464}
  - component: {fileID: 114686556306641520}
  m_Layer: 0
  m_Name: enemy_b
  m_TagString: Untagged
  m_Icon: {fileID: 0}
  m_NavMeshLayer: 0
  m_StaticEditorFlags: 0
  m_IsActive: 1
--- !u!4 &4718023832205464
Transform:
  m_ObjectHideFlags: 1
  m_PrefabParentObject: {fileID: 0}
  m_PrefabInternal: {fileID: 100100000}
  m_GameObject: {fileID: 1848507034425408}
  m_LocalRotation: {x: 0, y: 0, z: 0, w: 1}
  m_LocalPosition: {x: 0, y: 0, z: 0}
  m_LocalScale: {x: 1, y: 1, z: 1}
  m_Children: []
  m_Father: {fileID: 0}
  m_RootOrder: 0
  m_LocalEulerAnglesHint: {x: 0, y: 0, z: 0}
--- !u!114 &114686556306641520
MonoBehaviour:
  m_ObjectHideFlags: 1
  m_PrefabParentObject: {fileID: 0}
  m_PrefabInternal: {fileID: 100100000}
  m_GameObject: {fileID: 1848507034425408}
  m_Enabled: 1
  m_EditorHideFlags: 0
  m_Script: {fileID: 11500000, guid: 4d0c51bb0b6e93049af5e88f93826e3b, type: 3}
  m_Name: 
  m_EditorClassIdentifier: 
  material: {fileID: 2100000, guid: 5025693b870194185a7949004cbf6f74, type: 2}
  mSprites:
  - name: attack_01
    x: 85
    y: 51
    width: 84
    height: 102
    borderLeft: 0
    borderRight: 0
    borderTop: 0
    borderBottom: 0
    paddingLeft: 300
    paddingRight: 316
    paddingTop: 597
    paddingBottom: 1
  - name: attack_02
    x: 340
    y: 55
    width: 84
    height: 99
    borderLeft: 0
    borderRight: 0
    borderTop: 0
    borderBottom: 0
    paddingLeft: 298
    paddingRight: 318
    paddingTop: 600
    paddingBottom: 1
  - name: attack_03
    x: 0
    y: 148
    width: 84
    height: 108
    borderLeft: 0
    borderRight: 0
    borderTop: 0
    borderBottom: 0
    paddingLeft: 307
    paddingRight: 309
    paddingTop: 591
    paddingBottom: 1
  - name: attack_04
    x: 340
    y: 155
    width: 84
    height: 101
    borderLeft: 0
    borderRight: 0
    borderTop: 0
    borderBottom: 0
    paddingLeft: 308
    paddingRight: 308
    paddingTop: 598
    paddingBottom: 1
  - name: attack_05
    x: 255
    y: 52
    width: 84
    height: 101
    borderLeft: 0
    borderRight: 0
    borderTop: 0
    borderBottom: 0
    paddingLeft: 310
    paddingRight: 306
    paddingTop: 598
    paddingBottom: 1
  - name: attack_06
    x: 85
    y: 154
    width: 84
    height: 102
    borderLeft: 0
    borderRight: 0
    borderTop: 0
    borderBottom: 0
    paddingLeft: 300
    paddingRight: 316
    paddingTop: 597
    paddingBottom: 1
  - name: idle_01
    x: 255
    y: 154
    width: 84
    height: 102
    borderLeft: 0
    borderRight: 0
    borderTop: 0
    borderBottom: 0
    paddingLeft: 300
    paddingRight: 316
    paddingTop: 597
    paddingBottom: 1
  - name: walk_01
    x: 170
    y: 51
    width: 84
    height: 102
    borderLeft: 0
    borderRight: 0
    borderTop: 0
    borderBottom: 0
    paddingLeft: 300
    paddingRight: 316
    paddingTop: 597
    paddingBottom: 1
  - name: walk_02
    x: 425
    y: 156
    width: 84
    height: 100
    borderLeft: 0
    borderRight: 0
    borderTop: 0
    borderBottom: 0
    paddingLeft: 300
    paddingRight: 316
    paddingTop: 599
    paddingBottom: 1
  - name: walk_03
    x: 0
    y: 44
    width: 84
    height: 103
    borderLeft: 0
    borderRight: 0
    borderTop: 0
    borderBottom: 0
    paddingLeft: 304
    paddingRight: 312
    paddingTop: 596
    paddingBottom: 1
  - name: walk_04
    x: 170
    y: 154
    width: 84
    height: 102
    borderLeft: 0
    borderRight: 0
    borderTop: 0
    borderBottom: 0
    paddingLeft: 300
    paddingRight: 316
    paddingTop: 597
    paddingBottom: 1
  mPixelSize: 1
  mReplacement: {fileID: 0}
  mCoordinates: 0
  sprites: []
