%YAML 1.1
%TAG !u! tag:unity3d.com,2011:
--- !u!1001 &100100000
Prefab:
  m_ObjectHideFlags: 1
  serializedVersion: 2
  m_Modification:
    m_TransformParent: {fileID: 0}
    m_Modifications: []
    m_RemovedComponents: []
  m_ParentPrefab: {fileID: 0}
  m_RootGameObject: {fileID: 1943902621338034}
  m_IsPrefabParent: 1
--- !u!1 &1943902621338034
GameObject:
  m_ObjectHideFlags: 0
  m_PrefabParentObject: {fileID: 0}
  m_PrefabInternal: {fileID: 100100000}
  serializedVersion: 5
  m_Component:
  - component: {fileID: 4131443200397250}
  - component: {fileID: 114044398229337774}
  m_Layer: 0
  m_Name: enemy_f
  m_TagString: Untagged
  m_Icon: {fileID: 0}
  m_NavMeshLayer: 0
  m_StaticEditorFlags: 0
  m_IsActive: 1
--- !u!4 &4131443200397250
Transform:
  m_ObjectHideFlags: 1
  m_PrefabParentObject: {fileID: 0}
  m_PrefabInternal: {fileID: 100100000}
  m_GameObject: {fileID: 1943902621338034}
  m_LocalRotation: {x: 0, y: 0, z: 0, w: 1}
  m_LocalPosition: {x: 0, y: 0, z: 0}
  m_LocalScale: {x: 1, y: 1, z: 1}
  m_Children: []
  m_Father: {fileID: 0}
  m_RootOrder: 0
  m_LocalEulerAnglesHint: {x: 0, y: 0, z: 0}
--- !u!114 &114044398229337774
MonoBehaviour:
  m_ObjectHideFlags: 1
  m_PrefabParentObject: {fileID: 0}
  m_PrefabInternal: {fileID: 100100000}
  m_GameObject: {fileID: 1943902621338034}
  m_Enabled: 1
  m_EditorHideFlags: 0
  m_Script: {fileID: 11500000, guid: 4d0c51bb0b6e93049af5e88f93826e3b, type: 3}
  m_Name: 
  m_EditorClassIdentifier: 
  material: {fileID: 2100000, guid: be9809b03dd6f614f891c6842dd9106a, type: 2}
  mSprites:
  - name: attack_01
    x: 101
    y: 286
    width: 84
    height: 114
    borderLeft: 0
    borderRight: 0
    borderTop: 0
    borderBottom: 0
    paddingLeft: 300
    paddingRight: 316
    paddingTop: 583
    paddingBottom: 3
  - name: attack_02
    x: 328
    y: 405
    width: 84
    height: 107
    borderLeft: 0
    borderRight: 0
    borderTop: 0
    borderBottom: 0
    paddingLeft: 298
    paddingRight: 318
    paddingTop: 590
    paddingBottom: 3
  - name: attack_03
    x: 186
    y: 287
    width: 84
    height: 113
    borderLeft: 0
    borderRight: 0
    borderTop: 0
    borderBottom: 0
    paddingLeft: 301
    paddingRight: 315
    paddingTop: 584
    paddingBottom: 3
  - name: attack_04
    x: 243
    y: 403
    width: 84
    height: 109
    borderLeft: 0
    borderRight: 0
    borderTop: 0
    borderBottom: 0
    paddingLeft: 298
    paddingRight: 318
    paddingTop: 588
    paddingBottom: 3
  - name: attack_05
    x: 271
    y: 288
    width: 84
    height: 112
    borderLeft: 0
    borderRight: 0
    borderTop: 0
    borderBottom: 0
    paddingLeft: 297
    paddingRight: 319
    paddingTop: 585
    paddingBottom: 3
  - name: attack_06
    x: 0
    y: 285
    width: 100
    height: 115
    borderLeft: 0
    borderRight: 0
    borderTop: 0
    borderBottom: 0
    paddingLeft: 304
    paddingRight: 296
    paddingTop: 582
    paddingBottom: 3
  - name: attack_07
    x: 0
    y: 401
    width: 121
    height: 111
    borderLeft: 0
    borderRight: 0
    borderTop: 0
    borderBottom: 0
    paddingLeft: 309
    paddingRight: 270
    paddingTop: 586
    paddingBottom: 3
  - name: attack_08
    x: 122
    y: 401
    width: 120
    height: 111
    borderLeft: 0
    borderRight: 0
    borderTop: 0
    borderBottom: 0
    paddingLeft: 312
    paddingRight: 268
    paddingTop: 586
    paddingBottom: 3
  - name: attack_09
    x: 101
    y: 171
    width: 84
    height: 114
    borderLeft: 0
    borderRight: 0
    borderTop: 0
    borderBottom: 0
    paddingLeft: 312
    paddingRight: 304
    paddingTop: 583
    paddingBottom: 3
  - name: idle_01
    x: 0
    y: 53
    width: 84
    height: 114
    borderLeft: 0
    borderRight: 0
    borderTop: 0
    borderBottom: 0
    paddingLeft: 300
    paddingRight: 316
    paddingTop: 583
    paddingBottom: 3
  - name: walk_01
    x: 101
    y: 56
    width: 84
    height: 114
    borderLeft: 0
    borderRight: 0
    borderTop: 0
    borderBottom: 0
    paddingLeft: 300
    paddingRight: 316
    paddingTop: 583
    paddingBottom: 3
  - name: walk_02
    x: 356
    y: 288
    width: 83
    height: 112
    borderLeft: 0
    borderRight: 0
    borderTop: 0
    borderBottom: 0
    paddingLeft: 300
    paddingRight: 317
    paddingTop: 585
    paddingBottom: 3
  - name: walk_03
    x: 0
    y: 168
    width: 83
    height: 116
    borderLeft: 0
    borderRight: 0
    borderTop: 0
    borderBottom: 0
    paddingLeft: 300
    paddingRight: 317
    paddingTop: 581
    paddingBottom: 3
  - name: walk_04
    x: 186
    y: 172
    width: 83
    height: 114
    borderLeft: 0
    borderRight: 0
    borderTop: 0
    borderBottom: 0
    paddingLeft: 300
    paddingRight: 317
    paddingTop: 583
    paddingBottom: 3
  mPixelSize: 1
  mReplacement: {fileID: 0}
  mCoordinates: 0
  sprites: []
