%YAML 1.1
%TAG !u! tag:unity3d.com,2011:
--- !u!1001 &100100000
Prefab:
  m_ObjectHideFlags: 1
  serializedVersion: 2
  m_Modification:
    m_TransformParent: {fileID: 0}
    m_Modifications: []
    m_RemovedComponents: []
  m_ParentPrefab: {fileID: 0}
  m_RootGameObject: {fileID: 1509781380303842}
  m_IsPrefabParent: 1
--- !u!1 &1509781380303842
GameObject:
  m_ObjectHideFlags: 0
  m_PrefabParentObject: {fileID: 0}
  m_PrefabInternal: {fileID: 100100000}
  serializedVersion: 5
  m_Component:
  - component: {fileID: 4831271657316510}
  - component: {fileID: 114994472242309678}
  m_Layer: 0
  m_Name: meteor
  m_TagString: Untagged
  m_Icon: {fileID: 0}
  m_NavMeshLayer: 0
  m_StaticEditorFlags: 0
  m_IsActive: 1
--- !u!4 &4831271657316510
Transform:
  m_ObjectHideFlags: 1
  m_PrefabParentObject: {fileID: 0}
  m_PrefabInternal: {fileID: 100100000}
  m_GameObject: {fileID: 1509781380303842}
  m_LocalRotation: {x: 0, y: 0, z: 0, w: 1}
  m_LocalPosition: {x: 0, y: 0, z: 0}
  m_LocalScale: {x: 1, y: 1, z: 1}
  m_Children: []
  m_Father: {fileID: 0}
  m_RootOrder: 0
  m_LocalEulerAnglesHint: {x: 0, y: 0, z: 0}
--- !u!114 &114994472242309678
MonoBehaviour:
  m_ObjectHideFlags: 1
  m_PrefabParentObject: {fileID: 0}
  m_PrefabInternal: {fileID: 100100000}
  m_GameObject: {fileID: 1509781380303842}
  m_Enabled: 1
  m_EditorHideFlags: 0
  m_Script: {fileID: 11500000, guid: 4d0c51bb0b6e93049af5e88f93826e3b, type: 3}
  m_Name: 
  m_EditorClassIdentifier: 
  material: {fileID: 2100000, guid: 08e44d86fa21848efa056295c80ef875, type: 2}
  mSprites:
  - name: explosion_01
    x: 1211
    y: 1763
    width: 368
    height: 285
    borderLeft: 0
    borderRight: 0
    borderTop: 0
    borderBottom: 0
    paddingLeft: 76
    paddingRight: 56
    paddingTop: 155
    paddingBottom: 60
  - name: explosion_02
    x: 0
    y: 269
    width: 358
    height: 239
    borderLeft: 0
    borderRight: 0
    borderTop: 0
    borderBottom: 0
    paddingLeft: 66
    paddingRight: 76
    paddingTop: 191
    paddingBottom: 70
  - name: explosion_03
    x: 842
    y: 1759
    width: 368
    height: 289
    borderLeft: 0
    borderRight: 0
    borderTop: 0
    borderBottom: 0
    paddingLeft: 54
    paddingRight: 78
    paddingTop: 142
    paddingBottom: 69
  - name: explosion_04
    x: 0
    y: 1103
    width: 398
    height: 317
    borderLeft: 0
    borderRight: 0
    borderTop: 0
    borderBottom: 0
    paddingLeft: 46
    paddingRight: 56
    paddingTop: 113
    paddingBottom: 70
  - name: explosion_05
    x: 0
    y: 1421
    width: 405
    height: 325
    borderLeft: 0
    borderRight: 0
    borderTop: 0
    borderBottom: 0
    paddingLeft: 46
    paddingRight: 49
    paddingTop: 84
    paddingBottom: 91
  - name: explosion_06
    x: 0
    y: 800
    width: 398
    height: 302
    borderLeft: 0
    borderRight: 0
    borderTop: 0
    borderBottom: 0
    paddingLeft: 58
    paddingRight: 44
    paddingTop: 54
    paddingBottom: 144
  - name: explosion_07
    x: 443
    y: 1756
    width: 398
    height: 292
    borderLeft: 0
    borderRight: 0
    borderTop: 0
    borderBottom: 0
    paddingLeft: 57
    paddingRight: 45
    paddingTop: 46
    paddingBottom: 162
  - name: meteor_01
    x: 755
    y: 374
    width: 171
    height: 329
    borderLeft: 0
    borderRight: 0
    borderTop: 0
    borderBottom: 0
    paddingLeft: 162
    paddingRight: 167
    paddingTop: 223
    paddingBottom: 48
  - name: meteor_02
    x: 406
    y: 1067
    width: 178
    height: 409
    borderLeft: 0
    borderRight: 0
    borderTop: 0
    borderBottom: 0
    paddingLeft: 156
    paddingRight: 166
    paddingTop: 141
    paddingBottom: 50
  - name: meteor_03
    x: 755
    y: 1089
    width: 175
    height: 387
    borderLeft: 0
    borderRight: 0
    borderTop: 0
    borderBottom: 0
    paddingLeft: 160
    paddingRight: 165
    paddingTop: 163
    paddingBottom: 50
  - name: meteor_04
    x: 755
    y: 704
    width: 170
    height: 384
    borderLeft: 0
    borderRight: 0
    borderTop: 0
    borderBottom: 0
    paddingLeft: 164
    paddingRight: 166
    paddingTop: 166
    paddingBottom: 50
  - name: meteor_05
    x: 585
    y: 1072
    width: 169
    height: 404
    borderLeft: 0
    borderRight: 0
    borderTop: 0
    borderBottom: 0
    paddingLeft: 165
    paddingRight: 166
    paddingTop: 146
    paddingBottom: 50
  - name: meteor_06
    x: 406
    y: 214
    width: 168
    height: 408
    borderLeft: 0
    borderRight: 0
    borderTop: 0
    borderBottom: 0
    paddingLeft: 166
    paddingRight: 166
    paddingTop: 144
    paddingBottom: 48
  - name: meteor_07
    x: 406
    y: 623
    width: 156
    height: 443
    borderLeft: 0
    borderRight: 0
    borderTop: 0
    borderBottom: 0
    paddingLeft: 180
    paddingRight: 164
    paddingTop: 108
    paddingBottom: 49
  - name: smoke_01
    x: 0
    y: 1747
    width: 442
    height: 301
    borderLeft: 0
    borderRight: 0
    borderTop: 0
    borderBottom: 0
    paddingLeft: 32
    paddingRight: 26
    paddingTop: 24
    paddingBottom: 0
  - name: smoke_02
    x: 715
    y: 1532
    width: 356
    height: 214
    borderLeft: 0
    borderRight: 0
    borderTop: 0
    borderBottom: 0
    paddingLeft: 69
    paddingRight: 75
    paddingTop: 111
    paddingBottom: 0
  - name: smoke_03
    x: 0
    y: 14
    width: 333
    height: 254
    borderLeft: 0
    borderRight: 0
    borderTop: 0
    borderBottom: 0
    paddingLeft: 79
    paddingRight: 88
    paddingTop: 71
    paddingBottom: 0
  - name: smoke_04
    x: 1580
    y: 1778
    width: 387
    height: 270
    borderLeft: 0
    borderRight: 0
    borderTop: 0
    borderBottom: 0
    paddingLeft: 60
    paddingRight: 53
    paddingTop: 42
    paddingBottom: 13
  - name: smoke_05
    x: 0
    y: 509
    width: 328
    height: 290
    borderLeft: 0
    borderRight: 0
    borderTop: 0
    borderBottom: 0
    paddingLeft: 41
    paddingRight: 131
    paddingTop: 3
    paddingBottom: 32
  - name: smoke_06
    x: 406
    y: 1477
    width: 308
    height: 269
    borderLeft: 0
    borderRight: 0
    borderTop: 0
    borderBottom: 0
    paddingLeft: 35
    paddingRight: 157
    paddingTop: 0
    paddingBottom: 56
  mPixelSize: 1
  mReplacement: {fileID: 0}
  mCoordinates: 0
  sprites: []
