{
	"character": [
		{
			"id": 101,
			"name": "character_a",
			"atkTarget": "ONE",
			"costCreate": 30,
			"atk": 9,
			"maxHp": 30,
			"moveSpeed": 35,
			"atkCool": 1.5,
			"knockBackDamage": 50,
			"atkForceX": 0,
			"atkForceY": 0,
			"finishForceX": 100,
			"finishForceY": 50,
			"createCool": 6,
			"costCoin": 0,
			"costdefUpgrade": 30,
			"costUpgrade": 50,
			"upgradeAtk": 2,
			"upgradeHp": 6
		},
		{
			"id": 102,
			"name": "character_b",
			"atkTarget": "ONE",
			"costCreate": 50,
			"atk": 14,
			"maxHp": 65,
			"moveSpeed": 30,
			"atkCool": 1.875,
			"knockBackDamage": 50,
			"atkForceX": 0,
			"atkForceY": 0,
			"finishForceX": 100,
			"finishForceY": 50,
			"createCool": 6,
			"costCoin": 20,
			"costdefUpgrade": 40,
			"costUpgrade": 87,
			"upgradeAtk": 2.5,
			"upgradeHp": 7
		},
		{
			"id": 103,
			"name": "character_c",
			"atkTarget": "ONE",
			"costCreate": 80,
			"atk": 25,
			"maxHp": 100,
			"moveSpeed": 28,
			"atkCool": 3.375,
			"knockBackDamage": 50,
			"atkForceX": 0,
			"atkForceY": 0,
			"finishForceX": 100,
			"finishForceY": 50,
			"createCool": 9,
			"costCoin": 60,
			"costdefUpgrade": 75,
			"costUpgrade": 125,
			"upgradeAtk": 3,
			"upgradeHp": 8
		},
		{
			"id": 104,
			"name": "character_d",
			"atkTarget": "ONE",
			"costCreate": 120,
			"atk": 39,
			"maxHp": 120,
			"moveSpeed": 34,
			"atkCool": 2.25,
			"knockBackDamage": 50,
			"atkForceX": 0,
			"atkForceY": 0,
			"finishForceX": 100,
			"finishForceY": 50,
			"createCool": 9,
			"costCoin": 250,
			"costdefUpgrade": 125,
			"costUpgrade": 164,
			"upgradeAtk": 3.5,
			"upgradeHp": 9
		},
		{
			"id": 105,
			"name": "character_e",
			"atkTarget": "ONE",
			"costCreate": 200,
			"atk": 10,
			"maxHp": 155,
			"moveSpeed": 25,
			"atkCool": 2.4,
			"knockBackDamage": 50,
			"atkForceX": 0,
			"atkForceY": 0,
			"finishForceX": 100,
			"finishForceY": 50,
			"createCool": 15,
			"costCoin": 550,
			"costdefUpgrade": 458,
			"costUpgrade": 204,
			"upgradeAtk": 2,
			"upgradeHp": 6
		},
		{
			"id": 106,
			"name": "character_f",
			"atkTarget": "ONE",
			"costCreate": 55,
			"atk": 27,
			"maxHp": 133,
			"moveSpeed": 37,
			"atkCool": 1.5,
			"knockBackDamage": 50,
			"atkForceX": 0,
			"atkForceY": 0,
			"finishForceX": 100,
			"finishForceY": 50,
			"createCool": 10,
			"costCoin": 580,
			"costdefUpgrade": 590,
			"costUpgrade": 245,
			"upgradeAtk": 4,
			"upgradeHp": 10
		},
		{
			"id": 107,
			"name": "character_g",
			"atkTarget": "ONE",
			"costCreate": 300,
			"atk": 64,
			"maxHp": 230,
			"moveSpeed": 28,
			"atkCool": 6,
			"knockBackDamage": 50,
			"atkForceX": 0,
			"atkForceY": 0,
			"finishForceX": 100,
			"finishForceY": 50,
			"createCool": 22,
			"costCoin": 1850,
			"costdefUpgrade": 734,
			"costUpgrade": 287,
			"upgradeAtk": 4.5,
			"upgradeHp": 11
		},
		{
			"id": 108,
			"name": "character_h",
			"atkTarget": "ONE",
			"costCreate": 330,
			"atk": 78,
			"maxHp": 215,
			"moveSpeed": 33,
			"atkCool": 2.4,
			"knockBackDamage": 50,
			"atkForceX": 0,
			"atkForceY": 0,
			"finishForceX": 100,
			"finishForceY": 50,
			"createCool": 17,
			"costCoin": 3290,
			"costdefUpgrade": 890,
			"costUpgrade": 330,
			"upgradeAtk": 5,
			"upgradeHp": 12
		},
		{
			"id": 109,
			"name": "character_i",
			"atkTarget": "ONE",
			"costCreate": 350,
			"atk": 109,
			"maxHp": 290,
			"moveSpeed": 27,
			"atkCool": 4,
			"knockBackDamage": 50,
			"atkForceX": 0,
			"atkForceY": 0,
			"finishForceX": 100,
			"finishForceY": 50,
			"createCool": 15,
			"costCoin": 5560,
			"costdefUpgrade": 1058,
			"costUpgrade": 374,
			"upgradeAtk": 5.3,
			"upgradeHp": 13
		},
		{
			"id": 110,
			"name": "character_j",
			"atkTarget": "ONE",
			"costCreate": 550,
			"atk": 176,
			"maxHp": 265,
			"moveSpeed": 22,
			"atkCool": 4,
			"knockBackDamage": 50,
			"atkForceX": 0,
			"atkForceY": 0,
			"finishForceX": 100,
			"finishForceY": 50,
			"createCool": 35,
			"costCoin": 8057,
			"costdefUpgrade": 1238,
			"costUpgrade": 419,
			"upgradeAtk": 5.6,
			"upgradeHp": 14
		},
		{
			"id": 111,
			"name": "character_k",
			"atkTarget": "ONE",
			"costCreate": 600,
			"atk": 156,
			"maxHp": 399,
			"moveSpeed": 35,
			"atkCool": 3,
			"knockBackDamage": 50,
			"atkForceX": 0,
			"atkForceY": 0,
			"finishForceX": 100,
			"finishForceY": 50,
			"createCool": 22,
			"costCoin": 12750,
			"costdefUpgrade": 1430,
			"costUpgrade": 465,
			"upgradeAtk": 5.8,
			"upgradeHp": 14
		}
	],
	"enemy": [
		{
			"id": 201,
			"name": "enemy_a_small",
			"atkTarget": "ONE",
			"atk": 7,
			"maxHp": 30,
			"moveSpeed": 30,
			"atkCool": 2,
			"knockBackDamage": 50,
			"atkForceX": 0,
			"atkForceY": 0,
			"upgradeAtk": 0.14,
			"upgradeHp": 0.14,
			"killMoney": 3,
			"killCoin": 1,
			"upgradeKillCoin": 0,
			"finishForceX": 200,
			"finishForceY": 50
		},
		{
			"id": 202,
			"name": "enemy_b_small",
			"atkTarget": "ONE",
			"atk": 10,
			"maxHp": 25,
			"moveSpeed": 40,
			"atkCool": 1.52,
			"knockBackDamage": 50,
			"atkForceX": 0,
			"atkForceY": 0,
			"upgradeAtk": 0.14,
			"upgradeHp": 0.14,
			"killMoney": 3,
			"killCoin": 1,
			"upgradeKillCoin": 0,
			"finishForceX": 200,
			"finishForceY": 50
		},
		{
			"id": 203,
			"name": "enemy_c_small",
			"atkTarget": "ONE",
			"atk": 21,
			"maxHp": 65,
			"moveSpeed": 25,
			"atkCool": 2.8,
			"knockBackDamage": 50,
			"atkForceX": 0,
			"atkForceY": 0,
			"upgradeAtk": 0.14,
			"upgradeHp": 0.14,
			"killMoney": 4,
			"killCoin": 1,
			"upgradeKillCoin": 0,
			"finishForceX": 200,
			"finishForceY": 50
		},
		{
			"id": 204,
			"name": "enemy_d_small",
			"atkTarget": "ONE",
			"atk": 20,
			"maxHp": 55,
			"moveSpeed": 45,
			"atkCool": 1.76,
			"knockBackDamage": 50,
			"atkForceX": 0,
			"atkForceY": 0,
			"upgradeAtk": 0.14,
			"upgradeHp": 0.14,
			"killMoney": 4,
			"killCoin": 1,
			"upgradeKillCoin": 0,
			"finishForceX": 200,
			"finishForceY": 50
		},
		{
			"id": 205,
			"name": "enemy_e_small",
			"atkTarget": "ONE",
			"atk": 39,
			"maxHp": 110,
			"moveSpeed": 33,
			"atkCool": 2.4,
			"knockBackDamage": 50,
			"atkForceX": 0,
			"atkForceY": 0,
			"upgradeAtk": 0.14,
			"upgradeHp": 0.14,
			"killMoney": 5,
			"killCoin": 1,
			"upgradeKillCoin": 0,
			"finishForceX": 200,
			"finishForceY": 50
		},
		{
			"id": 206,
			"name": "enemy_f_small",
			"atkTarget": "ONE",
			"atk": 49,
			"maxHp": 155,
			"moveSpeed": 45,
			"atkCool": 2.16,
			"knockBackDamage": 50,
			"atkForceX": 0,
			"atkForceY": 0,
			"upgradeAtk": 0.14,
			"upgradeHp": 0.14,
			"killMoney": 5,
			"killCoin": 1,
			"upgradeKillCoin": 0,
			"finishForceX": 200,
			"finishForceY": 50
		},
		{
			"id": 207,
			"name": "enemy_g_small",
			"atkTarget": "ONE",
			"atk": 57,
			"maxHp": 166,
			"moveSpeed": 36,
			"atkCool": 1.68,
			"knockBackDamage": 50,
			"atkForceX": 0,
			"atkForceY": 0,
			"upgradeAtk": 0.14,
			"upgradeHp": 0.14,
			"killMoney": 6,
			"killCoin": 1,
			"upgradeKillCoin": 0,
			"finishForceX": 200,
			"finishForceY": 50
		},
		{
			"id": 208,
			"name": "enemy_h_small",
			"atkTarget": "ONE",
			"atk": 79,
			"maxHp": 186,
			"moveSpeed": 44,
			"atkCool": 2.03,
			"knockBackDamage": 50,
			"atkForceX": 0,
			"atkForceY": 0,
			"upgradeAtk": 0.14,
			"upgradeHp": 0.14,
			"killMoney": 6,
			"killCoin": 1,
			"upgradeKillCoin": 0,
			"finishForceX": 200,
			"finishForceY": 50
		},
		{
			"id": 209,
			"name": "enemy_i_small",
			"atkTarget": "ONE",
			"atk": 85,
			"maxHp": 210,
			"moveSpeed": 46,
			"atkCool": 2.03,
			"knockBackDamage": 50,
			"atkForceX": 0,
			"atkForceY": 0,
			"upgradeAtk": 0.14,
			"upgradeHp": 0.14,
			"killMoney": 7,
			"killCoin": 1,
			"upgradeKillCoin": 0,
			"finishForceX": 200,
			"finishForceY": 50
		},
		{
			"id": 301,
			"name": "enemy_a",
			"atkTarget": "ONE",
			"atk": 9,
			"maxHp": 30,
			"moveSpeed": 27,
			"atkCool": 2,
			"knockBackDamage": 50,
			"atkForceX": 0,
			"atkForceY": 0,
			"upgradeAtk": 0.14,
			"upgradeHp": 0.14,
			"killMoney": 0,
			"killCoin": 1,
			"upgradeKillCoin": 0,
			"finishForceX": 200,
			"finishForceY": 50
		},
		{
			"id": 302,
			"name": "enemy_b",
			"atkTarget": "ONE",
			"atk": 15,
			"maxHp": 25,
			"moveSpeed": 30,
			"atkCool": 1.52,
			"knockBackDamage": 50,
			"atkForceX": 0,
			"atkForceY": 0,
			"upgradeAtk": 0.14,
			"upgradeHp": 0.14,
			"killMoney": 0,
			"killCoin": 1,
			"upgradeKillCoin": 0,
			"finishForceX": 200,
			"finishForceY": 50
		},
		{
			"id": 303,
			"name": "enemy_c",
			"atkTarget": "ONE",
			"atk": 21,
			"maxHp": 65,
			"moveSpeed": 27,
			"atkCool": 2.8,
			"knockBackDamage": 50,
			"atkForceX": 0,
			"atkForceY": 0,
			"upgradeAtk": 0.14,
			"upgradeHp": 0.14,
			"killMoney": 0,
			"killCoin": 1,
			"upgradeKillCoin": 0,
			"finishForceX": 200,
			"finishForceY": 50
		},
		{
			"id": 304,
			"name": "enemy_d",
			"atkTarget": "ONE",
			"atk": 36,
			"maxHp": 55,
			"moveSpeed": 36,
			"atkCool": 1.76,
			"knockBackDamage": 50,
			"atkForceX": 0,
			"atkForceY": 0,
			"upgradeAtk": 0.14,
			"upgradeHp": 0.14,
			"killMoney": 0,
			"killCoin": 1,
			"upgradeKillCoin": 0,
			"finishForceX": 200,
			"finishForceY": 50
		},
		{
			"id": 305,
			"name": "enemy_e",
			"atkTarget": "ONE",
			"atk": 42,
			"maxHp": 110,
			"moveSpeed": 30,
			"atkCool": 2,
			"knockBackDamage": 50,
			"atkForceX": 0,
			"atkForceY": 0,
			"upgradeAtk": 0.14,
			"upgradeHp": 0.14,
			"killMoney": 0,
			"killCoin": 1,
			"upgradeKillCoin": 0,
			"finishForceX": 200,
			"finishForceY": 50
		},
		{
			"id": 306,
			"name": "enemy_f",
			"atkTarget": "ONE",
			"atk": 54,
			"maxHp": 155,
			"moveSpeed": 27,
			"atkCool": 2.4,
			"knockBackDamage": 50,
			"atkForceX": 0,
			"atkForceY": 0,
			"upgradeAtk": 0.14,
			"upgradeHp": 0.14,
			"killMoney": 0,
			"killCoin": 1,
			"upgradeKillCoin": 0,
			"finishForceX": 200,
			"finishForceY": 50
		},
		{
			"id": 307,
			"name": "enemy_g",
			"atkTarget": "ONE",
			"atk": 60,
			"maxHp": 166,
			"moveSpeed": 32,
			"atkCool": 2.24,
			"knockBackDamage": 50,
			"atkForceX": 0,
			"atkForceY": 0,
			"upgradeAtk": 0.14,
			"upgradeHp": 0.14,
			"killMoney": 0,
			"killCoin": 1,
			"upgradeKillCoin": 0,
			"finishForceX": 200,
			"finishForceY": 50
		}
	],
	"boss": [
		{
			"id": 401,
			"name": "enemy_a_boss",
			"atkTarget": "RANGE",
			"atk": 14,
			"maxHp": 200,
			"moveSpeed": 24,
			"atkCool": 2.4,
			"knockBackDamage": 10000,
			"atkForceX": 50,
			"atkForceY": 10,
			"initForceX": 150,
			"initForceY": 50,
			"createCool": 7.5,
			"upgradeAtk": 0.16,
			"upgradeHp": 0.16,
			"killMoney": 50,
			"killCoin": 0,
			"upgradeKillCoin": 0.1,
			"finishForceX": 150,
			"finishForceY": 50
		},
		{
			"id": 402,
			"name": "enemy_b_boss",
			"atkTarget": "RANGE",
			"atk": 20,
			"maxHp": 250,
			"moveSpeed": 32,
			"atkCool": 2.5,
			"knockBackDamage": 10000,
			"atkForceX": 50,
			"atkForceY": 10,
			"initForceX": 150,
			"initForceY": 50,
			"createCool": 7.5,
			"upgradeAtk": 0.16,
			"upgradeHp": 0.16,
			"killMoney": 50,
			"killCoin": 0,
			"upgradeKillCoin": 0.1,
			"finishForceX": 150,
			"finishForceY": 50
		},
		{
			"id": 403,
			"name": "enemy_c_boss",
			"atkTarget": "RANGE",
			"atk": 38,
			"maxHp": 650,
			"moveSpeed": 22,
			"atkCool": 3.5,
			"knockBackDamage": 10000,
			"atkForceX": 50,
			"atkForceY": 10,
			"initForceX": 150,
			"initForceY": 50,
			"createCool": 7.5,
			"upgradeAtk": 0.16,
			"upgradeHp": 0.16,
			"killMoney": 50,
			"killCoin": 0,
			"upgradeKillCoin": 0.1,
			"finishForceX": 150,
			"finishForceY": 50
		},
		{
			"id": 404,
			"name": "enemy_d_boss",
			"atkTarget": "RANGE",
			"atk": 35,
			"maxHp": 550,
			"moveSpeed": 36,
			"atkCool": 2.4,
			"knockBackDamage": 10000,
			"atkForceX": 50,
			"atkForceY": 10,
			"initForceX": 150,
			"initForceY": 50,
			"createCool": 7.5,
			"upgradeAtk": 0.16,
			"upgradeHp": 0.16,
			"killMoney": 50,
			"killCoin": 0,
			"upgradeKillCoin": 0.1,
			"finishForceX": 150,
			"finishForceY": 50
		},
		{
			"id": 405,
			"name": "enemy_e_boss",
			"atkTarget": "RANGE",
			"atk": 62,
			"maxHp": 1100,
			"moveSpeed": 26.4,
			"atkCool": 3,
			"knockBackDamage": 10000,
			"atkForceX": 50,
			"atkForceY": 10,
			"initForceX": 150,
			"initForceY": 50,
			"createCool": 7.5,
			"upgradeAtk": 0.16,
			"upgradeHp": 0.16,
			"killMoney": 50,
			"killCoin": 0,
			"upgradeKillCoin": 0.1,
			"finishForceX": 150,
			"finishForceY": 50
		},
		{
			"id": 406,
			"name": "enemy_f_boss",
			"atkTarget": "RANGE",
			"atk": 132,
			"maxHp": 1550,
			"moveSpeed": 36,
			"atkCool": 2.5,
			"knockBackDamage": 10000,
			"atkForceX": 50,
			"atkForceY": 10,
			"initForceX": 150,
			"initForceY": 50,
			"createCool": 7.5,
			"upgradeAtk": 0.16,
			"upgradeHp": 0.16,
			"killMoney": 50,
			"killCoin": 0,
			"upgradeKillCoin": 0.1,
			"finishForceX": 150,
			"finishForceY": 50
		},
		{
			"id": 407,
			"name": "enemy_g_boss",
			"atkTarget": "RANGE",
			"atk": 147,
			"maxHp": 1660,
			"moveSpeed": 28.8,
			"atkCool": 2.2,
			"knockBackDamage": 10000,
			"atkForceX": 50,
			"atkForceY": 10,
			"initForceX": 150,
			"initForceY": 50,
			"createCool": 7.5,
			"upgradeAtk": 0.16,
			"upgradeHp": 0.16,
			"killMoney": 50,
			"killCoin": 0,
			"upgradeKillCoin": 0.1,
			"finishForceX": 150,
			"finishForceY": 50
		},
		{
			"id": 408,
			"name": "enemy_h_boss",
			"atkTarget": "RANGE",
			"atk": 13,
			"maxHp": 500,
			"moveSpeed": 21.6,
			"atkCool": 3,
			"knockBackDamage": 10000,
			"atkForceX": 50,
			"atkForceY": 10,
			"initForceX": 150,
			"initForceY": 50,
			"createCool": 7.5,
			"upgradeAtk": 0.16,
			"upgradeHp": 0.16,
			"killMoney": 50,
			"killCoin": 0,
			"upgradeKillCoin": 0.1,
			"finishForceX": 150,
			"finishForceY": 50
		},
		{
			"id": 409,
			"name": "enemy_i_boss",
			"atkTarget": "RANGE",
			"atk": 18,
			"maxHp": 800,
			"moveSpeed": 24,
			"atkCool": 2.5,
			"knockBackDamage": 10000,
			"atkForceX": 50,
			"atkForceY": 10,
			"initForceX": 150,
			"initForceY": 50,
			"createCool": 7.5,
			"upgradeAtk": 0.16,
			"upgradeHp": 0.16,
			"killMoney": 50,
			"killCoin": 0,
			"upgradeKillCoin": 0.1,
			"finishForceX": 150,
			"finishForceY": 50
		}
	],
	"stageData": [
		{
			"stage": 1,
			"enemyIds": [
				201
			],
			"enemyRates": [
				100
			],
			"initTime": 10,
			"delay": 24,
			"termMin": 12,
			"termMax": 24,
			"createNum": 8,
			"hpCreate": [
				0
			],
			"hpCreateEnemy": [
				0
			],
			"hpCreateBoss": [
				0
			],
			"maxHp": 300,
			"distance": 50,
			"firstCoin": 20
		},
		{
			"stage": 2,
			"enemyIds": [
				201,
				202
			],
			"enemyRates": [
				70,
				30
			],
			"initTime": 7,
			"delay": 24,
			"termMin": 12,
			"termMax": 24,
			"createNum": 8,
			"hpCreate": [
				10
			],
			"hpCreateEnemy": [
				1
			],
			"hpCreateBoss": [
				0
			],
			"maxHp": 500,
			"distance": 70,
			"firstCoin": 20
		},
		{
			"stage": 3,
			"enemyIds": [
				201,
				202,
				203
			],
			"enemyRates": [
				30,
				40,
				20
			],
			"initTime": 7,
			"delay": 24,
			"termMin": 12,
			"termMax": 24,
			"createNum": 8,
			"hpCreate": [
				60
			],
			"hpCreateEnemy": [
				0
			],
			"hpCreateBoss": [
				401
			],
			"maxHp": 1000,
			"distance": 80,
			"firstCoin": 20
		},
		{
			"stage": 4,
			"enemyIds": [
				201,
				202,
				203
			],
			"enemyRates": [
				30,
				40,
				20
			],
			"initTime": 7,
			"delay": 20,
			"termMin": 10,
			"termMax": 20,
			"createNum": 8,
			"hpCreate": [
				75,
				25
			],
			"hpCreateEnemy": [
				1,
				1
			],
			"hpCreateBoss": [
				0,
				0
			],
			"maxHp": 1000,
			"distance": 60,
			"firstCoin": 20
		},
		{
			"stage": 5,
			"enemyIds": [
				201,
				202,
				203,
				204
			],
			"enemyRates": [
				30,
				30,
				20,
				20
			],
			"initTime": 7,
			"delay": 20,
			"termMin": 10,
			"termMax": 20,
			"createNum": 8,
			"hpCreate": [
				75,
				25
			],
			"hpCreateEnemy": [
				1,
				2
			],
			"hpCreateBoss": [
				0,
				0
			],
			"maxHp": 1000,
			"distance": 80,
			"firstCoin": 20
		},
		{
			"stage": 6,
			"enemyIds": [
				201,
				202,
				203,
				204
			],
			"enemyRates": [
				30,
				30,
				20,
				20
			],
			"initTime": 7,
			"delay": 20,
			"termMin": 7,
			"termMax": 20,
			"createNum": 8,
			"hpCreate": [
				75,
				25
			],
			"hpCreateEnemy": [
				0,
				1
			],
			"hpCreateBoss": [
				402,
				0
			],
			"maxHp": 1000,
			"distance": 80,
			"firstCoin": 15
		},
		{
			"stage": 7,
			"enemyIds": [
				201,
				202,
				203,
				204
			],
			"enemyRates": [
				30,
				30,
				20,
				20
			],
			"initTime": 7,
			"delay": 15,
			"termMin": 6,
			"termMax": 15,
			"createNum": 6,
			"hpCreate": [
				75,
				35,
				5
			],
			"hpCreateEnemy": [
				1,
				1,
				1
			],
			"hpCreateBoss": [
				0,
				0,
				0
			],
			"maxHp": 1000,
			"distance": 100,
			"firstCoin": 15
		},
		{
			"stage": 8,
			"enemyIds": [
				201,
				202,
				203,
				204,
				205
			],
			"enemyRates": [
				30,
				20,
				20,
				20,
				10
			],
			"initTime": 7,
			"delay": 15,
			"termMin": 6,
			"termMax": 15,
			"createNum": 6,
			"hpCreate": [
				75,
				35,
				5
			],
			"hpCreateEnemy": [
				1,
				2,
				1
			],
			"hpCreateBoss": [
				0,
				0,
				0
			],
			"maxHp": 1000,
			"distance": 80,
			"firstCoin": 15
		},
		{
			"stage": 9,
			"enemyIds": [
				201,
				202,
				203,
				204,
				205
			],
			"enemyRates": [
				30,
				20,
				20,
				20,
				10
			],
			"initTime": 7,
			"delay": 15,
			"termMin": 6,
			"termMax": 15,
			"createNum": 6,
			"hpCreate": [
				75,
				25
			],
			"hpCreateEnemy": [
				2,
				2
			],
			"hpCreateBoss": [
				0,
				0
			],
			"maxHp": 1000,
			"distance": 90,
			"firstCoin": 15
		},
		{
			"stage": 10,
			"enemyIds": [
				201,
				202,
				203,
				204,
				205
			],
			"enemyRates": [
				20,
				20,
				20,
				20,
				20
			],
			"initTime": 7,
			"delay": 20,
			"termMin": 6,
			"termMax": 20,
			"createNum": 6,
			"hpCreate": [
				75,
				35,
				5
			],
			"hpCreateEnemy": [
				1,
				2,
				1
			],
			"hpCreateBoss": [
				402,
				0,
				401
			],
			"maxHp": 2000,
			"distance": 120,
			"firstCoin": 15
		},
		{
			"stage": 11,
			"enemyIds": [
				201,
				202,
				203,
				204,
				205
			],
			"enemyRates": [
				20,
				20,
				20,
				20,
				20
			],
			"initTime": 6.5,
			"delay": 15,
			"termMin": 6,
			"termMax": 15,
			"createNum": 6,
			"hpCreate": [
				90,
				70,
				35,
				15,
				5
			],
			"hpCreateEnemy": [
				2,
				2,
				2,
				2,
				2
			],
			"hpCreateBoss": [
				0,
				0,
				0,
				0,
				0
			],
			"maxHp": 2000,
			"distance": 80,
			"firstCoin": 15
		},
		{
			"stage": 12,
			"enemyIds": [
				201,
				202,
				203,
				204,
				205
			],
			"enemyRates": [
				20,
				20,
				20,
				20,
				20
			],
			"initTime": 6.5,
			"delay": 15,
			"termMin": 6,
			"termMax": 15,
			"createNum": 6,
			"hpCreate": [
				75,
				35,
				5
			],
			"hpCreateEnemy": [
				1,
				2,
				2
			],
			"hpCreateBoss": [
				0,
				0,
				0
			],
			"maxHp": 2000,
			"distance": 100,
			"firstCoin": 15
		},
		{
			"stage": 13,
			"enemyIds": [
				201
			],
			"enemyRates": [
				100
			],
			"initTime": 6.5,
			"delay": 15,
			"termMin": 6,
			"termMax": 15,
			"createNum": 6,
			"hpCreate": [
				25
			],
			"hpCreateEnemy": [
				4
			],
			"hpCreateBoss": [
				0
			],
			"maxHp": 2000,
			"distance": 80,
			"firstCoin": 15
		},
		{
			"stage": 14,
			"enemyIds": [
				201,
				202,
				203,
				204,
				205
			],
			"enemyRates": [
				20,
				20,
				20,
				20,
				20
			],
			"initTime": 6.5,
			"delay": 15,
			"termMin": 6,
			"termMax": 15,
			"createNum": 6,
			"hpCreate": [
				75,
				35,
				5
			],
			"hpCreateEnemy": [
				1,
				2,
				2
			],
			"hpCreateBoss": [
				0,
				0,
				0
			],
			"maxHp": 2000,
			"distance": 100,
			"firstCoin": 15
		},
		{
			"stage": 15,
			"enemyIds": [
				201,
				202,
				203,
				204,
				205
			],
			"enemyRates": [
				20,
				20,
				20,
				20,
				20
			],
			"initTime": 6.5,
			"delay": 20,
			"termMin": 6,
			"termMax": 20,
			"createNum": 6,
			"hpCreate": [
				90,
				70,
				35,
				15,
				5
			],
			"hpCreateEnemy": [
				1,
				0,
				2,
				1,
				2
			],
			"hpCreateBoss": [
				0,
				403,
				0,
				0,
				401
			],
			"maxHp": 2000,
			"distance": 120,
			"firstCoin": 10
		},
		{
			"stage": 16,
			"enemyIds": [
				202
			],
			"enemyRates": [
				100
			],
			"initTime": 6.5,
			"delay": 13,
			"termMin": 5,
			"termMax": 13,
			"createNum": 6,
			"hpCreate": [
				70,
				20
			],
			"hpCreateEnemy": [
				2,
				4
			],
			"hpCreateBoss": [
				0,
				0
			],
			"maxHp": 2000,
			"distance": 80,
			"firstCoin": 10
		},
		{
			"stage": 17,
			"enemyIds": [
				201,
				202,
				203,
				204,
				205
			],
			"enemyRates": [
				20,
				20,
				20,
				20,
				20
			],
			"initTime": 6.5,
			"delay": 13,
			"termMin": 5,
			"termMax": 13,
			"createNum": 6,
			"hpCreate": [
				75,
				35,
				5
			],
			"hpCreateEnemy": [
				2,
				1,
				2
			],
			"hpCreateBoss": [
				0,
				0,
				0
			],
			"maxHp": 2000,
			"distance": 100,
			"firstCoin": 10
		},
		{
			"stage": 18,
			"enemyIds": [
				201,
				202,
				203,
				204,
				205
			],
			"enemyRates": [
				20,
				20,
				20,
				20,
				20
			],
			"initTime": 6.5,
			"delay": 13,
			"termMin": 5,
			"termMax": 13,
			"createNum": 6,
			"hpCreate": [
				75,
				35,
				5
			],
			"hpCreateEnemy": [
				3,
				2,
				1
			],
			"hpCreateBoss": [
				0,
				0,
				0
			],
			"maxHp": 2000,
			"distance": 80,
			"firstCoin": 10
		},
		{
			"stage": 19,
			"enemyIds": [
				201,
				202,
				203,
				204,
				205
			],
			"enemyRates": [
				20,
				20,
				20,
				20,
				20
			],
			"initTime": 6.5,
			"delay": 13,
			"termMin": 5,
			"termMax": 13,
			"createNum": 6,
			"hpCreate": [
				90,
				70,
				35,
				15,
				5
			],
			"hpCreateEnemy": [
				2,
				1,
				1,
				2,
				1
			],
			"hpCreateBoss": [
				0,
				0,
				0,
				0,
				0
			],
			"maxHp": 2000,
			"distance": 100,
			"firstCoin": 10
		},
		{
			"stage": 20,
			"enemyIds": [
				201,
				202,
				203,
				204,
				205
			],
			"enemyRates": [
				20,
				20,
				20,
				20,
				20
			],
			"initTime": 5,
			"delay": 18,
			"termMin": 4.5,
			"termMax": 18,
			"createNum": 6,
			"hpCreate": [
				60,
				30
			],
			"hpCreateEnemy": [
				2,
				0
			],
			"hpCreateBoss": [
				0,
				403
			],
			"maxHp": 2000,
			"distance": 120,
			"firstCoin": 10
		},
		{
			"stage": 21,
			"enemyIds": [
				201
			],
			"enemyRates": [
				100
			],
			"initTime": 5,
			"delay": 12,
			"termMin": 4.5,
			"termMax": 12,
			"createNum": 6,
			"hpCreate": [
				70,
				20
			],
			"hpCreateEnemy": [
				4,
				5
			],
			"hpCreateBoss": [
				0,
				0
			],
			"maxHp": 2000,
			"distance": 120,
			"firstCoin": 0
		},
		{
			"stage": 22,
			"enemyIds": [
				201,
				202,
				203,
				204,
				205,
				206
			],
			"enemyRates": [
				5,
				15,
				20,
				20,
				20,
				20
			],
			"initTime": 5,
			"delay": 10,
			"termMin": 4.5,
			"termMax": 10,
			"createNum": 6,
			"hpCreate": [
				70,
				35,
				15
			],
			"hpCreateEnemy": [
				1,
				2,
				2
			],
			"hpCreateBoss": [
				0,
				0,
				0
			],
			"maxHp": 2000,
			"distance": 100,
			"firstCoin": 0
		},
		{
			"stage": 23,
			"enemyIds": [
				201,
				202,
				203,
				204,
				205,
				206
			],
			"enemyRates": [
				5,
				15,
				20,
				20,
				20,
				20
			],
			"initTime": 5,
			"delay": 10,
			"termMin": 4.5,
			"termMax": 10,
			"createNum": 6,
			"hpCreate": [
				70,
				35,
				15
			],
			"hpCreateEnemy": [
				3,
				1,
				2
			],
			"hpCreateBoss": [
				0,
				401,
				0
			],
			"maxHp": 2000,
			"distance": 120,
			"firstCoin": 0
		},
		{
			"stage": 24,
			"enemyIds": [
				201,
				202,
				203,
				204,
				205,
				206
			],
			"enemyRates": [
				5,
				15,
				20,
				20,
				20,
				20
			],
			"initTime": 5,
			"delay": 10,
			"termMin": 4.5,
			"termMax": 10,
			"createNum": 6,
			"hpCreate": [
				90,
				70,
				35,
				15,
				5
			],
			"hpCreateEnemy": [
				3,
				2,
				3,
				2,
				3
			],
			"hpCreateBoss": [
				0,
				0,
				0,
				0,
				0
			],
			"maxHp": 2000,
			"distance": 100,
			"firstCoin": 0
		},
		{
			"stage": 25,
			"enemyIds": [
				201,
				202,
				203,
				204,
				205,
				206
			],
			"enemyRates": [
				5,
				15,
				20,
				20,
				20,
				20
			],
			"initTime": 5,
			"delay": 15,
			"termMin": 4.5,
			"termMax": 15,
			"createNum": 6,
			"hpCreate": [
				70,
				35,
				15
			],
			"hpCreateEnemy": [
				3,
				1,
				2
			],
			"hpCreateBoss": [
				0,
				404,
				401
			],
			"maxHp": 2000,
			"distance": 140,
			"firstCoin": 0
		},
		{
			"stage": 26,
			"enemyIds": [
				202
			],
			"enemyRates": [
				100
			],
			"initTime": 5,
			"delay": 10,
			"termMin": 4.5,
			"termMax": 10,
			"createNum": 6,
			"hpCreate": [
				70,
				20
			],
			"hpCreateEnemy": [
				3,
				4
			],
			"hpCreateBoss": [
				0,
				0
			],
			"maxHp": 2000,
			"distance": 120,
			"firstCoin": 0
		},
		{
			"stage": 27,
			"enemyIds": [
				201,
				202,
				203,
				204,
				205,
				206
			],
			"enemyRates": [
				5,
				15,
				20,
				20,
				20,
				20
			],
			"initTime": 5,
			"delay": 10,
			"termMin": 4.5,
			"termMax": 10,
			"createNum": 6,
			"hpCreate": [
				70,
				35,
				15
			],
			"hpCreateEnemy": [
				1,
				2,
				2
			],
			"hpCreateBoss": [
				402,
				0,
				0
			],
			"maxHp": 2000,
			"distance": 100,
			"firstCoin": 0
		},
		{
			"stage": 28,
			"enemyIds": [
				201,
				202,
				203,
				204,
				205,
				206
			],
			"enemyRates": [
				5,
				15,
				20,
				20,
				20,
				20
			],
			"initTime": 5,
			"delay": 10,
			"termMin": 4.5,
			"termMax": 10,
			"createNum": 6,
			"hpCreate": [
				70,
				35,
				15
			],
			"hpCreateEnemy": [
				3,
				1,
				2
			],
			"hpCreateBoss": [
				0,
				0,
				0
			],
			"maxHp": 2000,
			"distance": 120,
			"firstCoin": 0
		},
		{
			"stage": 29,
			"enemyIds": [
				201,
				202,
				203,
				204,
				205,
				206
			],
			"enemyRates": [
				5,
				15,
				20,
				20,
				20,
				20
			],
			"initTime": 5,
			"delay": 10,
			"termMin": 4.5,
			"termMax": 10,
			"createNum": 6,
			"hpCreate": [
				90,
				70,
				35,
				15,
				5
			],
			"hpCreateEnemy": [
				3,
				2,
				3,
				2,
				3
			],
			"hpCreateBoss": [
				0,
				0,
				0,
				0,
				0
			],
			"maxHp": 2000,
			"distance": 100,
			"firstCoin": 0
		},
		{
			"stage": 30,
			"enemyIds": [
				202,
				203,
				204,
				205,
				206,
				207
			],
			"enemyRates": [
				10,
				10,
				20,
				20,
				20,
				20
			],
			"initTime": 5,
			"delay": 15,
			"termMin": 4.5,
			"termMax": 15,
			"createNum": 6,
			"hpCreate": [
				60,
				30
			],
			"hpCreateEnemy": [
				2,
				0
			],
			"hpCreateBoss": [
				0,
				401,
				405
			],
			"maxHp": 2500,
			"distance": 140,
			"firstCoin": 0
		},
		{
			"stage": 31,
			"enemyIds": [
				201
			],
			"enemyRates": [
				100
			],
			"initTime": 5,
			"delay": 9,
			"termMin": 4.5,
			"termMax": 9,
			"createNum": 6,
			"hpCreate": [
				70,
				20
			],
			"hpCreateEnemy": [
				4,
				5
			],
			"hpCreateBoss": [
				0,
				0
			],
			"maxHp": 2500,
			"distance": 120,
			"firstCoin": 0
		},
		{
			"stage": 32,
			"enemyIds": [
				202,
				203,
				204,
				205,
				206,
				207
			],
			"enemyRates": [
				10,
				10,
				20,
				20,
				20,
				20
			],
			"initTime": 5,
			"delay": 9,
			"termMin": 4.5,
			"termMax": 9,
			"createNum": 6,
			"hpCreate": [
				70,
				35,
				15
			],
			"hpCreateEnemy": [
				1,
				2,
				2
			],
			"hpCreateBoss": [
				0,
				0,
				0
			],
			"maxHp": 2500,
			"distance": 100,
			"firstCoin": 0
		},
		{
			"stage": 33,
			"enemyIds": [
				202,
				203,
				204,
				205,
				206,
				207
			],
			"enemyRates": [
				10,
				10,
				20,
				20,
				20,
				20
			],
			"initTime": 5,
			"delay": 9,
			"termMin": 4.5,
			"termMax": 9,
			"createNum": 6,
			"hpCreate": [
				70,
				35,
				15
			],
			"hpCreateEnemy": [
				3,
				1,
				2
			],
			"hpCreateBoss": [
				0,
				402,
				0
			],
			"maxHp": 2500,
			"distance": 120,
			"firstCoin": 0
		},
		{
			"stage": 34,
			"enemyIds": [
				202,
				203,
				204,
				205,
				206,
				207
			],
			"enemyRates": [
				10,
				10,
				20,
				20,
				20,
				20
			],
			"initTime": 5,
			"delay": 9,
			"termMin": 4.5,
			"termMax": 9,
			"createNum": 6,
			"hpCreate": [
				90,
				70,
				35,
				15,
				5
			],
			"hpCreateEnemy": [
				3,
				2,
				3,
				2,
				3
			],
			"hpCreateBoss": [
				0,
				0,
				0,
				0,
				0
			],
			"maxHp": 2500,
			"distance": 100,
			"firstCoin": 0
		},
		{
			"stage": 35,
			"enemyIds": [
				202,
				203,
				204,
				205,
				206,
				207
			],
			"enemyRates": [
				10,
				10,
				20,
				20,
				20,
				20
			],
			"initTime": 5,
			"delay": 13,
			"termMin": 4.5,
			"termMax": 13,
			"createNum": 6,
			"hpCreate": [
				70,
				35,
				15
			],
			"hpCreateEnemy": [
				3,
				1,
				2
			],
			"hpCreateBoss": [
				0,
				404,
				406
			],
			"maxHp": 2500,
			"distance": 140,
			"firstCoin": 0
		},
		{
			"stage": 36,
			"enemyIds": [
				202
			],
			"enemyRates": [
				100
			],
			"initTime": 5,
			"delay": 9,
			"termMin": 4.5,
			"termMax": 9,
			"createNum": 6,
			"hpCreate": [
				70,
				20
			],
			"hpCreateEnemy": [
				3,
				4
			],
			"hpCreateBoss": [
				0,
				0
			],
			"maxHp": 2500,
			"distance": 120,
			"firstCoin": 0
		},
		{
			"stage": 37,
			"enemyIds": [
				202,
				203,
				204,
				205,
				206,
				207
			],
			"enemyRates": [
				10,
				10,
				20,
				20,
				20,
				20
			],
			"initTime": 5,
			"delay": 9,
			"termMin": 4.5,
			"termMax": 9,
			"createNum": 6,
			"hpCreate": [
				70,
				35,
				15
			],
			"hpCreateEnemy": [
				1,
				2,
				2
			],
			"hpCreateBoss": [
				404,
				0,
				0
			],
			"maxHp": 2500,
			"distance": 100,
			"firstCoin": 0
		},
		{
			"stage": 38,
			"enemyIds": [
				202,
				203,
				204,
				205,
				206,
				207
			],
			"enemyRates": [
				10,
				10,
				20,
				20,
				20,
				20
			],
			"initTime": 5,
			"delay": 9,
			"termMin": 4.5,
			"termMax": 9,
			"createNum": 6,
			"hpCreate": [
				70,
				35,
				15
			],
			"hpCreateEnemy": [
				3,
				1,
				2
			],
			"hpCreateBoss": [
				0,
				0,
				0
			],
			"maxHp": 2500,
			"distance": 120,
			"firstCoin": 0
		},
		{
			"stage": 39,
			"enemyIds": [
				202,
				203,
				204,
				205,
				206,
				207
			],
			"enemyRates": [
				10,
				10,
				20,
				20,
				20,
				20
			],
			"initTime": 5,
			"delay": 9,
			"termMin": 4.5,
			"termMax": 9,
			"createNum": 6,
			"hpCreate": [
				90,
				70,
				35,
				15,
				5
			],
			"hpCreateEnemy": [
				3,
				2,
				3,
				2,
				3
			],
			"hpCreateBoss": [
				0,
				0,
				0,
				0,
				0
			],
			"maxHp": 2500,
			"distance": 100,
			"firstCoin": 0
		},
		{
			"stage": 40,
			"enemyIds": [
				203,
				204,
				205,
				206,
				207,
				208
			],
			"enemyRates": [
				10,
				10,
				20,
				20,
				20,
				20
			],
			"initTime": 5,
			"delay": 13,
			"termMin": 4,
			"termMax": 13,
			"createNum": 6,
			"hpCreate": [
				60,
				30
			],
			"hpCreateEnemy": [
				2,
				0
			],
			"hpCreateBoss": [
				0,
				406
			],
			"maxHp": 3000,
			"distance": 140,
			"firstCoin": 0
		},
		{
			"stage": 41,
			"enemyIds": [
				202
			],
			"enemyRates": [
				100
			],
			"initTime": 5,
			"delay": 8,
			"termMin": 4,
			"termMax": 8,
			"createNum": 6,
			"hpCreate": [
				70,
				20
			],
			"hpCreateEnemy": [
				4,
				5
			],
			"hpCreateBoss": [
				0,
				0
			],
			"maxHp": 2500,
			"distance": 120,
			"firstCoin": 0
		},
		{
			"stage": 42,
			"enemyIds": [
				203,
				204,
				205,
				206,
				207,
				208
			],
			"enemyRates": [
				10,
				10,
				20,
				20,
				20,
				20
			],
			"initTime": 5,
			"delay": 8,
			"termMin": 4,
			"termMax": 8,
			"createNum": 6,
			"hpCreate": [
				70,
				35,
				15
			],
			"hpCreateEnemy": [
				1,
				2,
				2
			],
			"hpCreateBoss": [
				0,
				0,
				0
			],
			"maxHp": 2500,
			"distance": 100,
			"firstCoin": 0
		},
		{
			"stage": 43,
			"enemyIds": [
				203,
				204,
				205,
				206,
				207,
				208
			],
			"enemyRates": [
				10,
				10,
				20,
				20,
				20,
				20
			],
			"initTime": 5,
			"delay": 8,
			"termMin": 4,
			"termMax": 8,
			"createNum": 6,
			"hpCreate": [
				70,
				35,
				15
			],
			"hpCreateEnemy": [
				3,
				1,
				2
			],
			"hpCreateBoss": [
				0,
				403,
				0
			],
			"maxHp": 2500,
			"distance": 120,
			"firstCoin": 0
		},
		{
			"stage": 44,
			"enemyIds": [
				203,
				204,
				205,
				206,
				207,
				208
			],
			"enemyRates": [
				10,
				10,
				20,
				20,
				20,
				20
			],
			"initTime": 5,
			"delay": 8,
			"termMin": 4,
			"termMax": 8,
			"createNum": 6,
			"hpCreate": [
				90,
				70,
				35,
				15,
				5
			],
			"hpCreateEnemy": [
				3,
				2,
				3,
				2,
				3
			],
			"hpCreateBoss": [
				0,
				0,
				0,
				0,
				0
			],
			"maxHp": 2500,
			"distance": 100,
			"firstCoin": 0
		},
		{
			"stage": 45,
			"enemyIds": [
				203,
				204,
				205,
				206,
				207,
				208
			],
			"enemyRates": [
				10,
				10,
				20,
				20,
				20,
				20
			],
			"initTime": 5,
			"delay": 12,
			"termMin": 4,
			"termMax": 12,
			"createNum": 6,
			"hpCreate": [
				70,
				35,
				15
			],
			"hpCreateEnemy": [
				3,
				1,
				2
			],
			"hpCreateBoss": [
				0,
				403,
				407
			],
			"maxHp": 2500,
			"distance": 140,
			"firstCoin": 0
		},
		{
			"stage": 46,
			"enemyIds": [
				201
			],
			"enemyRates": [
				100
			],
			"initTime": 5,
			"delay": 8,
			"termMin": 4,
			"termMax": 8,
			"createNum": 6,
			"hpCreate": [
				70,
				20
			],
			"hpCreateEnemy": [
				3,
				4
			],
			"hpCreateBoss": [
				0,
				0
			],
			"maxHp": 2500,
			"distance": 120,
			"firstCoin": 0
		},
		{
			"stage": 47,
			"enemyIds": [
				203,
				204,
				205,
				206,
				207,
				208
			],
			"enemyRates": [
				10,
				10,
				20,
				20,
				20,
				20
			],
			"initTime": 5,
			"delay": 8,
			"termMin": 4,
			"termMax": 8,
			"createNum": 6,
			"hpCreate": [
				70,
				35,
				15
			],
			"hpCreateEnemy": [
				1,
				2,
				2
			],
			"hpCreateBoss": [
				405,
				0,
				0
			],
			"maxHp": 2500,
			"distance": 100,
			"firstCoin": 0
		},
		{
			"stage": 48,
			"enemyIds": [
				203,
				204,
				205,
				206,
				207,
				208
			],
			"enemyRates": [
				10,
				10,
				20,
				20,
				20,
				20
			],
			"initTime": 5,
			"delay": 8,
			"termMin": 4,
			"termMax": 8,
			"createNum": 6,
			"hpCreate": [
				70,
				35,
				15
			],
			"hpCreateEnemy": [
				3,
				1,
				2
			],
			"hpCreateBoss": [
				0,
				0,
				0
			],
			"maxHp": 2500,
			"distance": 120,
			"firstCoin": 0
		},
		{
			"stage": 49,
			"enemyIds": [
				203,
				204,
				205,
				206,
				207,
				208
			],
			"enemyRates": [
				10,
				10,
				20,
				20,
				20,
				20
			],
			"initTime": 5,
			"delay": 8,
			"termMin": 4,
			"termMax": 8,
			"createNum": 6,
			"hpCreate": [
				90,
				70,
				35,
				15,
				5
			],
			"hpCreateEnemy": [
				3,
				2,
				3,
				2,
				3
			],
			"hpCreateBoss": [
				0,
				0,
				0,
				0,
				0
			],
			"maxHp": 2500,
			"distance": 100,
			"firstCoin": 0
		},
		{
			"stage": 50,
			"enemyIds": [
				203,
				204,
				205,
				206,
				207,
				208
			],
			"enemyRates": [
				10,
				10,
				20,
				20,
				20,
				20
			],
			"initTime": 5,
			"delay": 12,
			"termMin": 4,
			"termMax": 12,
			"createNum": 6,
			"hpCreate": [
				60,
				30
			],
			"hpCreateEnemy": [
				3,
				0
			],
			"hpCreateBoss": [
				0,
				407
			],
			"maxHp": 3000,
			"distance": 140,
			"firstCoin": 0
		},
		{
			"stage": 51,
			"enemyIds": [
				202
			],
			"enemyRates": [
				100
			],
			"initTime": 5,
			"delay": 8,
			"termMin": 4,
			"termMax": 8,
			"createNum": 6,
			"hpCreate": [
				70,
				20
			],
			"hpCreateEnemy": [
				4,
				5
			],
			"hpCreateBoss": [
				0,
				0
			],
			"maxHp": 3000,
			"distance": 120,
			"firstCoin": 0
		},
		{
			"stage": 52,
			"enemyIds": [
				203,
				204,
				205,
				206,
				207,
				208
			],
			"enemyRates": [
				10,
				10,
				20,
				20,
				20,
				20
			],
			"initTime": 5,
			"delay": 8,
			"termMin": 4,
			"termMax": 8,
			"createNum": 6,
			"hpCreate": [
				70,
				35,
				15
			],
			"hpCreateEnemy": [
				1,
				2,
				2
			],
			"hpCreateBoss": [
				0,
				0,
				0
			],
			"maxHp": 3000,
			"distance": 100,
			"firstCoin": 0
		},
		{
			"stage": 53,
			"enemyIds": [
				203,
				204,
				205,
				206,
				207,
				208
			],
			"enemyRates": [
				10,
				10,
				20,
				20,
				20,
				20
			],
			"initTime": 5,
			"delay": 8,
			"termMin": 4,
			"termMax": 8,
			"createNum": 6,
			"hpCreate": [
				70,
				35,
				15
			],
			"hpCreateEnemy": [
				3,
				1,
				2
			],
			"hpCreateBoss": [
				0,
				403,
				0
			],
			"maxHp": 3000,
			"distance": 120,
			"firstCoin": 0
		},
		{
			"stage": 54,
			"enemyIds": [
				203,
				204,
				205,
				206,
				207,
				208
			],
			"enemyRates": [
				10,
				10,
				20,
				20,
				20,
				20
			],
			"initTime": 5,
			"delay": 8,
			"termMin": 4,
			"termMax": 8,
			"createNum": 6,
			"hpCreate": [
				90,
				70,
				35,
				15,
				5
			],
			"hpCreateEnemy": [
				3,
				2,
				3,
				2,
				3
			],
			"hpCreateBoss": [
				0,
				0,
				0,
				0,
				0
			],
			"maxHp": 3000,
			"distance": 100,
			"firstCoin": 0
		},
		{
			"stage": 55,
			"enemyIds": [
				203,
				204,
				205,
				206,
				207,
				208
			],
			"enemyRates": [
				10,
				10,
				20,
				20,
				20,
				20
			],
			"initTime": 5,
			"delay": 12,
			"termMin": 4,
			"termMax": 12,
			"createNum": 6,
			"hpCreate": [
				70,
				35,
				15
			],
			"hpCreateEnemy": [
				3,
				1,
				2
			],
			"hpCreateBoss": [
				0,
				403,
				407
			],
			"maxHp": 3000,
			"distance": 140,
			"firstCoin": 0
		},
		{
			"stage": 56,
			"enemyIds": [
				201
			],
			"enemyRates": [
				100
			],
			"initTime": 5,
			"delay": 8,
			"termMin": 4,
			"termMax": 8,
			"createNum": 6,
			"hpCreate": [
				70,
				20
			],
			"hpCreateEnemy": [
				3,
				4
			],
			"hpCreateBoss": [
				0,
				0
			],
			"maxHp": 3000,
			"distance": 120,
			"firstCoin": 0
		},
		{
			"stage": 57,
			"enemyIds": [
				203,
				204,
				205,
				206,
				207,
				208
			],
			"enemyRates": [
				10,
				10,
				20,
				20,
				20,
				20
			],
			"initTime": 5,
			"delay": 8,
			"termMin": 4,
			"termMax": 8,
			"createNum": 6,
			"hpCreate": [
				70,
				35,
				15
			],
			"hpCreateEnemy": [
				1,
				2,
				2
			],
			"hpCreateBoss": [
				405,
				0,
				0
			],
			"maxHp": 3000,
			"distance": 100,
			"firstCoin": 0
		},
		{
			"stage": 58,
			"enemyIds": [
				203,
				204,
				205,
				206,
				207,
				208
			],
			"enemyRates": [
				10,
				10,
				20,
				20,
				20,
				20
			],
			"initTime": 5,
			"delay": 8,
			"termMin": 4,
			"termMax": 8,
			"createNum": 6,
			"hpCreate": [
				70,
				35,
				15
			],
			"hpCreateEnemy": [
				3,
				1,
				2
			],
			"hpCreateBoss": [
				0,
				0,
				0
			],
			"maxHp": 3000,
			"distance": 120,
			"firstCoin": 0
		},
		{
			"stage": 59,
			"enemyIds": [
				203,
				204,
				205,
				206,
				207,
				208
			],
			"enemyRates": [
				10,
				10,
				20,
				20,
				20,
				20
			],
			"initTime": 5,
			"delay": 8,
			"termMin": 4,
			"termMax": 8,
			"createNum": 6,
			"hpCreate": [
				90,
				70,
				35,
				15,
				5
			],
			"hpCreateEnemy": [
				3,
				2,
				3,
				2,
				3
			],
			"hpCreateBoss": [
				0,
				0,
				0,
				0,
				0
			],
			"maxHp": 3000,
			"distance": 100,
			"firstCoin": 0
		},
		{
			"stage": 60,
			"enemyIds": [
				203,
				204,
				205,
				206,
				207,
				208
			],
			"enemyRates": [
				10,
				10,
				20,
				20,
				20,
				20
			],
			"initTime": 5,
			"delay": 12,
			"termMin": 4,
			"termMax": 12,
			"createNum": 6,
			"hpCreate": [
				60,
				30
			],
			"hpCreateEnemy": [
				3,
				0
			],
			"hpCreateBoss": [
				0,
				407
			],
			"maxHp": 3000,
			"distance": 140,
			"firstCoin": 0
		},
		{
			"stage": 61,
			"enemyIds": [
				203
			],
			"enemyRates": [
				100
			],
			"initTime": 5,
			"delay": 8,
			"termMin": 4,
			"termMax": 8,
			"createNum": 6,
			"hpCreate": [
				70,
				20
			],
			"hpCreateEnemy": [
				4,
				5
			],
			"hpCreateBoss": [
				0,
				0
			],
			"maxHp": 4000,
			"distance": 120,
			"firstCoin": 0
		},
		{
			"stage": 62,
			"enemyIds": [
				203,
				204,
				205,
				206,
				207,
				208
			],
			"enemyRates": [
				10,
				10,
				20,
				20,
				20,
				20
			],
			"initTime": 5,
			"delay": 8,
			"termMin": 4,
			"termMax": 8,
			"createNum": 6,
			"hpCreate": [
				70,
				35,
				15
			],
			"hpCreateEnemy": [
				1,
				2,
				2
			],
			"hpCreateBoss": [
				0,
				0,
				0
			],
			"maxHp": 4000,
			"distance": 100,
			"firstCoin": 0
		},
		{
			"stage": 63,
			"enemyIds": [
				203,
				204,
				205,
				206,
				207,
				208
			],
			"enemyRates": [
				10,
				10,
				20,
				20,
				20,
				20
			],
			"initTime": 5,
			"delay": 8,
			"termMin": 4,
			"termMax": 8,
			"createNum": 6,
			"hpCreate": [
				70,
				35,
				15
			],
			"hpCreateEnemy": [
				3,
				1,
				2
			],
			"hpCreateBoss": [
				0,
				403,
				0
			],
			"maxHp": 4000,
			"distance": 120,
			"firstCoin": 0
		},
		{
			"stage": 64,
			"enemyIds": [
				203,
				204,
				205,
				206,
				207,
				208
			],
			"enemyRates": [
				10,
				10,
				20,
				20,
				20,
				20
			],
			"initTime": 5,
			"delay": 8,
			"termMin": 4,
			"termMax": 8,
			"createNum": 6,
			"hpCreate": [
				90,
				70,
				35,
				15,
				5
			],
			"hpCreateEnemy": [
				3,
				2,
				3,
				2,
				3
			],
			"hpCreateBoss": [
				0,
				0,
				0,
				0,
				0
			],
			"maxHp": 4000,
			"distance": 100,
			"firstCoin": 0
		},
		{
			"stage": 65,
			"enemyIds": [
				203,
				204,
				205,
				206,
				207,
				208
			],
			"enemyRates": [
				10,
				10,
				20,
				20,
				20,
				20
			],
			"initTime": 5,
			"delay": 12,
			"termMin": 4,
			"termMax": 12,
			"createNum": 6,
			"hpCreate": [
				70,
				35,
				15
			],
			"hpCreateEnemy": [
				3,
				1,
				2
			],
			"hpCreateBoss": [
				0,
				403,
				407
			],
			"maxHp": 4000,
			"distance": 140,
			"firstCoin": 0
		},
		{
			"stage": 66,
			"enemyIds": [
				202
			],
			"enemyRates": [
				100
			],
			"initTime": 5,
			"delay": 8,
			"termMin": 4,
			"termMax": 8,
			"createNum": 6,
			"hpCreate": [
				70,
				20
			],
			"hpCreateEnemy": [
				3,
				4
			],
			"hpCreateBoss": [
				0,
				0
			],
			"maxHp": 4000,
			"distance": 120,
			"firstCoin": 0
		},
		{
			"stage": 67,
			"enemyIds": [
				203,
				204,
				205,
				206,
				207,
				208
			],
			"enemyRates": [
				10,
				10,
				20,
				20,
				20,
				20
			],
			"initTime": 5,
			"delay": 8,
			"termMin": 4,
			"termMax": 8,
			"createNum": 6,
			"hpCreate": [
				70,
				35,
				15
			],
			"hpCreateEnemy": [
				1,
				2,
				2
			],
			"hpCreateBoss": [
				405,
				0,
				0
			],
			"maxHp": 4000,
			"distance": 100,
			"firstCoin": 0
		},
		{
			"stage": 68,
			"enemyIds": [
				203,
				204,
				205,
				206,
				207,
				208
			],
			"enemyRates": [
				10,
				10,
				20,
				20,
				20,
				20
			],
			"initTime": 5,
			"delay": 8,
			"termMin": 4,
			"termMax": 8,
			"createNum": 6,
			"hpCreate": [
				70,
				35,
				15
			],
			"hpCreateEnemy": [
				3,
				1,
				2
			],
			"hpCreateBoss": [
				0,
				0,
				0
			],
			"maxHp": 4000,
			"distance": 120,
			"firstCoin": 0
		},
		{
			"stage": 69,
			"enemyIds": [
				203,
				204,
				205,
				206,
				207,
				208
			],
			"enemyRates": [
				10,
				10,
				20,
				20,
				20,
				20
			],
			"initTime": 5,
			"delay": 8,
			"termMin": 4,
			"termMax": 8,
			"createNum": 6,
			"hpCreate": [
				90,
				70,
				35,
				15,
				5
			],
			"hpCreateEnemy": [
				3,
				2,
				3,
				2,
				3
			],
			"hpCreateBoss": [
				0,
				0,
				0,
				0,
				0
			],
			"maxHp": 4000,
			"distance": 100,
			"firstCoin": 0
		},
		{
			"stage": 70,
			"enemyIds": [
				203,
				204,
				205,
				206,
				207,
				208
			],
			"enemyRates": [
				10,
				10,
				20,
				20,
				20,
				20
			],
			"initTime": 5,
			"delay": 12,
			"termMin": 4,
			"termMax": 12,
			"createNum": 6,
			"hpCreate": [
				60,
				30
			],
			"hpCreateEnemy": [
				3,
				0
			],
			"hpCreateBoss": [
				0,
				407
			],
			"maxHp": 4000,
			"distance": 140,
			"firstCoin": 0
		},
		{
			"stage": 71,
			"enemyIds": [
				202
			],
			"enemyRates": [
				100
			],
			"initTime": 5,
			"delay": 8,
			"termMin": 4,
			"termMax": 8,
			"createNum": 6,
			"hpCreate": [
				70,
				20
			],
			"hpCreateEnemy": [
				4,
				5
			],
			"hpCreateBoss": [
				0,
				0
			],
			"maxHp": 5000,
			"distance": 120,
			"firstCoin": 0
		},
		{
			"stage": 72,
			"enemyIds": [
				204,
				205,
				206,
				207,
				208,
				209
			],
			"enemyRates": [
				10,
				10,
				20,
				20,
				20,
				20
			],
			"initTime": 5,
			"delay": 8,
			"termMin": 4,
			"termMax": 8,
			"createNum": 6,
			"hpCreate": [
				70,
				35,
				15
			],
			"hpCreateEnemy": [
				1,
				2,
				2
			],
			"hpCreateBoss": [
				0,
				0,
				0
			],
			"maxHp": 5000,
			"distance": 100,
			"firstCoin": 0
		},
		{
			"stage": 73,
			"enemyIds": [
				204,
				205,
				206,
				207,
				208,
				209
			],
			"enemyRates": [
				10,
				10,
				20,
				20,
				20,
				20
			],
			"initTime": 5,
			"delay": 8,
			"termMin": 4,
			"termMax": 8,
			"createNum": 6,
			"hpCreate": [
				70,
				35,
				15
			],
			"hpCreateEnemy": [
				3,
				1,
				2
			],
			"hpCreateBoss": [
				0,
				403,
				0
			],
			"maxHp": 5000,
			"distance": 120,
			"firstCoin": 0
		},
		{
			"stage": 74,
			"enemyIds": [
				204,
				205,
				206,
				207,
				208,
				209
			],
			"enemyRates": [
				10,
				10,
				20,
				20,
				20,
				20
			],
			"initTime": 5,
			"delay": 8,
			"termMin": 4,
			"termMax": 8,
			"createNum": 6,
			"hpCreate": [
				90,
				70,
				35,
				15,
				5
			],
			"hpCreateEnemy": [
				3,
				2,
				3,
				2,
				3
			],
			"hpCreateBoss": [
				0,
				0,
				0,
				0,
				0
			],
			"maxHp": 5000,
			"distance": 100,
			"firstCoin": 0
		},
		{
			"stage": 75,
			"enemyIds": [
				204,
				205,
				206,
				207,
				208,
				209
			],
			"enemyRates": [
				10,
				10,
				20,
				20,
				20,
				20
			],
			"initTime": 5,
			"delay": 12,
			"termMin": 4,
			"termMax": 12,
			"createNum": 6,
			"hpCreate": [
				70,
				35,
				15
			],
			"hpCreateEnemy": [
				3,
				1,
				2
			],
			"hpCreateBoss": [
				0,
				403,
				407
			],
			"maxHp": 5000,
			"distance": 140,
			"firstCoin": 0
		},
		{
			"stage": 76,
			"enemyIds": [
				201
			],
			"enemyRates": [
				100
			],
			"initTime": 5,
			"delay": 8,
			"termMin": 4,
			"termMax": 8,
			"createNum": 6,
			"hpCreate": [
				70,
				20
			],
			"hpCreateEnemy": [
				3,
				4
			],
			"hpCreateBoss": [
				0,
				0
			],
			"maxHp": 5000,
			"distance": 120,
			"firstCoin": 0
		},
		{
			"stage": 77,
			"enemyIds": [
				204,
				205,
				206,
				207,
				208,
				209
			],
			"enemyRates": [
				10,
				10,
				20,
				20,
				20,
				20
			],
			"initTime": 5,
			"delay": 8,
			"termMin": 4,
			"termMax": 8,
			"createNum": 6,
			"hpCreate": [
				70,
				35,
				15
			],
			"hpCreateEnemy": [
				1,
				2,
				2
			],
			"hpCreateBoss": [
				405,
				0,
				0
			],
			"maxHp": 5000,
			"distance": 100,
			"firstCoin": 0
		},
		{
			"stage": 78,
			"enemyIds": [
				204,
				205,
				206,
				207,
				208,
				209
			],
			"enemyRates": [
				10,
				10,
				20,
				20,
				20,
				20
			],
			"initTime": 5,
			"delay": 8,
			"termMin": 4,
			"termMax": 8,
			"createNum": 6,
			"hpCreate": [
				70,
				35,
				15
			],
			"hpCreateEnemy": [
				3,
				1,
				2
			],
			"hpCreateBoss": [
				0,
				0,
				0
			],
			"maxHp": 5000,
			"distance": 120,
			"firstCoin": 0
		},
		{
			"stage": 79,
			"enemyIds": [
				204,
				205,
				206,
				207,
				208,
				209
			],
			"enemyRates": [
				10,
				10,
				20,
				20,
				20,
				20
			],
			"initTime": 5,
			"delay": 8,
			"termMin": 4,
			"termMax": 8,
			"createNum": 6,
			"hpCreate": [
				90,
				70,
				35,
				15,
				5
			],
			"hpCreateEnemy": [
				3,
				2,
				3,
				2,
				3
			],
			"hpCreateBoss": [
				0,
				0,
				0,
				0,
				0
			],
			"maxHp": 5000,
			"distance": 100,
			"firstCoin": 0
		},
		{
			"stage": 80,
			"enemyIds": [
				204,
				205,
				206,
				207,
				208,
				209
			],
			"enemyRates": [
				10,
				10,
				20,
				20,
				20,
				20
			],
			"initTime": 5,
			"delay": 12,
			"termMin": 4,
			"termMax": 12,
			"createNum": 6,
			"hpCreate": [
				60,
				30
			],
			"hpCreateEnemy": [
				3,
				0
			],
			"hpCreateBoss": [
				0,
				407
			],
			"maxHp": 5000,
			"distance": 140,
			"firstCoin": 0
		},
		{
			"stage": 81,
			"enemyIds": [
				203
			],
			"enemyRates": [
				100
			],
			"initTime": 5,
			"delay": 8,
			"termMin": 4,
			"termMax": 8,
			"createNum": 6,
			"hpCreate": [
				70,
				20
			],
			"hpCreateEnemy": [
				4,
				5
			],
			"hpCreateBoss": [
				0,
				0
			],
			"maxHp": 5000,
			"distance": 120,
			"firstCoin": 0
		},
		{
			"stage": 82,
			"enemyIds": [
				204,
				205,
				206,
				207,
				208,
				209
			],
			"enemyRates": [
				10,
				10,
				20,
				20,
				20,
				20
			],
			"initTime": 5,
			"delay": 8,
			"termMin": 4,
			"termMax": 8,
			"createNum": 6,
			"hpCreate": [
				70,
				35,
				15
			],
			"hpCreateEnemy": [
				1,
				2,
				2
			],
			"hpCreateBoss": [
				0,
				0,
				0
			],
			"maxHp": 5000,
			"distance": 100,
			"firstCoin": 0
		},
		{
			"stage": 83,
			"enemyIds": [
				204,
				205,
				206,
				207,
				208,
				209
			],
			"enemyRates": [
				10,
				10,
				20,
				20,
				20,
				20
			],
			"initTime": 5,
			"delay": 8,
			"termMin": 4,
			"termMax": 8,
			"createNum": 6,
			"hpCreate": [
				70,
				35,
				15
			],
			"hpCreateEnemy": [
				3,
				1,
				2
			],
			"hpCreateBoss": [
				0,
				403,
				0
			],
			"maxHp": 5000,
			"distance": 120,
			"firstCoin": 0
		},
		{
			"stage": 84,
			"enemyIds": [
				204,
				205,
				206,
				207,
				208,
				209
			],
			"enemyRates": [
				10,
				10,
				20,
				20,
				20,
				20
			],
			"initTime": 5,
			"delay": 8,
			"termMin": 4,
			"termMax": 8,
			"createNum": 6,
			"hpCreate": [
				90,
				70,
				35,
				15,
				5
			],
			"hpCreateEnemy": [
				3,
				2,
				3,
				2,
				3
			],
			"hpCreateBoss": [
				0,
				0,
				0,
				0,
				0
			],
			"maxHp": 5000,
			"distance": 100,
			"firstCoin": 0
		},
		{
			"stage": 85,
			"enemyIds": [
				204,
				205,
				206,
				207,
				208,
				209
			],
			"enemyRates": [
				10,
				10,
				20,
				20,
				20,
				20
			],
			"initTime": 5,
			"delay": 12,
			"termMin": 4,
			"termMax": 12,
			"createNum": 6,
			"hpCreate": [
				70,
				35,
				15
			],
			"hpCreateEnemy": [
				3,
				1,
				2
			],
			"hpCreateBoss": [
				0,
				403,
				407
			],
			"maxHp": 5000,
			"distance": 140,
			"firstCoin": 0
		},
		{
			"stage": 86,
			"enemyIds": [
				202
			],
			"enemyRates": [
				100
			],
			"initTime": 5,
			"delay": 8,
			"termMin": 4,
			"termMax": 8,
			"createNum": 6,
			"hpCreate": [
				70,
				20
			],
			"hpCreateEnemy": [
				3,
				4
			],
			"hpCreateBoss": [
				0,
				0
			],
			"maxHp": 5000,
			"distance": 120,
			"firstCoin": 0
		},
		{
			"stage": 87,
			"enemyIds": [
				204,
				205,
				206,
				207,
				208,
				209
			],
			"enemyRates": [
				10,
				10,
				20,
				20,
				20,
				20
			],
			"initTime": 5,
			"delay": 8,
			"termMin": 4,
			"termMax": 8,
			"createNum": 6,
			"hpCreate": [
				70,
				35,
				15
			],
			"hpCreateEnemy": [
				1,
				2,
				2
			],
			"hpCreateBoss": [
				405,
				0,
				0
			],
			"maxHp": 5000,
			"distance": 100,
			"firstCoin": 0
		},
		{
			"stage": 88,
			"enemyIds": [
				204,
				205,
				206,
				207,
				208,
				209
			],
			"enemyRates": [
				10,
				10,
				20,
				20,
				20,
				20
			],
			"initTime": 5,
			"delay": 8,
			"termMin": 4,
			"termMax": 8,
			"createNum": 6,
			"hpCreate": [
				70,
				35,
				15
			],
			"hpCreateEnemy": [
				3,
				1,
				2
			],
			"hpCreateBoss": [
				0,
				0,
				0
			],
			"maxHp": 5000,
			"distance": 120,
			"firstCoin": 0
		},
		{
			"stage": 89,
			"enemyIds": [
				204,
				205,
				206,
				207,
				208,
				209
			],
			"enemyRates": [
				10,
				10,
				20,
				20,
				20,
				20
			],
			"initTime": 5,
			"delay": 8,
			"termMin": 4,
			"termMax": 8,
			"createNum": 6,
			"hpCreate": [
				90,
				70,
				35,
				15,
				5
			],
			"hpCreateEnemy": [
				3,
				2,
				3,
				2,
				3
			],
			"hpCreateBoss": [
				0,
				0,
				0,
				0,
				0
			],
			"maxHp": 5000,
			"distance": 100,
			"firstCoin": 0
		},
		{
			"stage": 90,
			"enemyIds": [
				204,
				205,
				206,
				207,
				208,
				209
			],
			"enemyRates": [
				10,
				10,
				20,
				20,
				20,
				20
			],
			"initTime": 5,
			"delay": 12,
			"termMin": 4,
			"termMax": 12,
			"createNum": 6,
			"hpCreate": [
				60,
				30
			],
			"hpCreateEnemy": [
				3,
				0
			],
			"hpCreateBoss": [
				0,
				407
			],
			"maxHp": 5000,
			"distance": 140,
			"firstCoin": 0
		},
		{
			"stage": 91,
			"enemyIds": [
				202
			],
			"enemyRates": [
				100
			],
			"initTime": 5,
			"delay": 8,
			"termMin": 4,
			"termMax": 8,
			"createNum": 6,
			"hpCreate": [
				70,
				20
			],
			"hpCreateEnemy": [
				4,
				5
			],
			"hpCreateBoss": [
				0,
				0
			],
			"maxHp": 5000,
			"distance": 120,
			"firstCoin": 0
		},
		{
			"stage": 92,
			"enemyIds": [
				204,
				205,
				206,
				207,
				208,
				209
			],
			"enemyRates": [
				10,
				10,
				20,
				20,
				20,
				20
			],
			"initTime": 5,
			"delay": 8,
			"termMin": 4,
			"termMax": 8,
			"createNum": 6,
			"hpCreate": [
				70,
				35,
				15
			],
			"hpCreateEnemy": [
				1,
				2,
				2
			],
			"hpCreateBoss": [
				0,
				0,
				0
			],
			"maxHp": 5000,
			"distance": 100,
			"firstCoin": 0
		},
		{
			"stage": 93,
			"enemyIds": [
				204,
				205,
				206,
				207,
				208,
				209
			],
			"enemyRates": [
				10,
				10,
				20,
				20,
				20,
				20
			],
			"initTime": 5,
			"delay": 8,
			"termMin": 4,
			"termMax": 8,
			"createNum": 6,
			"hpCreate": [
				70,
				35,
				15
			],
			"hpCreateEnemy": [
				3,
				1,
				2
			],
			"hpCreateBoss": [
				0,
				403,
				0
			],
			"maxHp": 5000,
			"distance": 120,
			"firstCoin": 0
		},
		{
			"stage": 94,
			"enemyIds": [
				204,
				205,
				206,
				207,
				208,
				209
			],
			"enemyRates": [
				10,
				10,
				20,
				20,
				20,
				20
			],
			"initTime": 5,
			"delay": 8,
			"termMin": 4,
			"termMax": 8,
			"createNum": 6,
			"hpCreate": [
				90,
				70,
				35,
				15,
				5
			],
			"hpCreateEnemy": [
				3,
				2,
				3,
				2,
				3
			],
			"hpCreateBoss": [
				0,
				0,
				0,
				0,
				0
			],
			"maxHp": 5000,
			"distance": 100,
			"firstCoin": 0
		},
		{
			"stage": 95,
			"enemyIds": [
				204,
				205,
				206,
				207,
				208,
				209
			],
			"enemyRates": [
				10,
				10,
				20,
				20,
				20,
				20
			],
			"initTime": 5,
			"delay": 12,
			"termMin": 4,
			"termMax": 12,
			"createNum": 6,
			"hpCreate": [
				70,
				35,
				15
			],
			"hpCreateEnemy": [
				3,
				1,
				2
			],
			"hpCreateBoss": [
				0,
				403,
				407
			],
			"maxHp": 5000,
			"distance": 140,
			"firstCoin": 0
		},
		{
			"stage": 96,
			"enemyIds": [
				201
			],
			"enemyRates": [
				100
			],
			"initTime": 5,
			"delay": 8,
			"termMin": 4,
			"termMax": 8,
			"createNum": 6,
			"hpCreate": [
				70,
				20
			],
			"hpCreateEnemy": [
				3,
				4
			],
			"hpCreateBoss": [
				0,
				0
			],
			"maxHp": 5000,
			"distance": 120,
			"firstCoin": 0
		},
		{
			"stage": 97,
			"enemyIds": [
				204,
				205,
				206,
				207,
				208,
				209
			],
			"enemyRates": [
				10,
				10,
				20,
				20,
				20,
				20
			],
			"initTime": 5,
			"delay": 8,
			"termMin": 4,
			"termMax": 8,
			"createNum": 6,
			"hpCreate": [
				70,
				35,
				15
			],
			"hpCreateEnemy": [
				1,
				2,
				2
			],
			"hpCreateBoss": [
				405,
				0,
				0
			],
			"maxHp": 5000,
			"distance": 100,
			"firstCoin": 0
		},
		{
			"stage": 98,
			"enemyIds": [
				204,
				205,
				206,
				207,
				208,
				209
			],
			"enemyRates": [
				10,
				10,
				20,
				20,
				20,
				20
			],
			"initTime": 5,
			"delay": 8,
			"termMin": 4,
			"termMax": 8,
			"createNum": 6,
			"hpCreate": [
				70,
				35,
				15
			],
			"hpCreateEnemy": [
				3,
				1,
				2
			],
			"hpCreateBoss": [
				0,
				0,
				0
			],
			"maxHp": 5000,
			"distance": 120,
			"firstCoin": 0
		},
		{
			"stage": 99,
			"enemyIds": [
				204,
				205,
				206,
				207,
				208,
				209
			],
			"enemyRates": [
				10,
				10,
				20,
				20,
				20,
				20
			],
			"initTime": 5,
			"delay": 8,
			"termMin": 4,
			"termMax": 8,
			"createNum": 6,
			"hpCreate": [
				90,
				70,
				35,
				15,
				5
			],
			"hpCreateEnemy": [
				3,
				2,
				3,
				2,
				3
			],
			"hpCreateBoss": [
				0,
				0,
				0,
				0,
				0
			],
			"maxHp": 5000,
			"distance": 100,
			"firstCoin": 0
		},
		{
			"stage": 100,
			"enemyIds": [
				204,
				205,
				206,
				207,
				208,
				209
			],
			"enemyRates": [
				10,
				10,
				20,
				20,
				20,
				20
			],
			"initTime": 5,
			"delay": 12,
			"termMin": 4,
			"termMax": 12,
			"createNum": 6,
			"hpCreate": [
				60,
				30
			],
			"hpCreateEnemy": [
				3,
				0
			],
			"hpCreateBoss": [
				0,
				407
			],
			"maxHp": 5000,
			"distance": 140,
			"firstCoin": 0
		}
	]
}