{
	"patterns": [
		{
			"id": 0,
			"time": 15,
			"enemyId": 204
		},
		{
			"id": 0,
			"time": 25,
			"enemyId": 206
		},
		{
			"id": 0,
			"time": 35,
			"enemyId": 203
		},
		{
			"id": 0,
			"time": 45,
			"enemyId": 205
		},
		{
			"id": 0,
			"time": 55,
			"enemyId": 203
		},
		{
			"id": 0,
			"time": 65,
			"enemyId": 207
		},
		{
			"id": 0,
			"time": 75,
			"enemyId": 206
		},
		{
			"id": 0,
			"time": 85,
			"enemyId": 205
		},
		{
			"id": 0,
			"time": 95,
			"enemyId": 204
		},
		{
			"id": 0,
			"time": 105,
			"enemyId": 208
		},
		{
			"id": 0,
			"time": 115,
			"enemyId": 206
		},
		{
			"id": 0,
			"time": 125,
			"enemyId": 203
		},
		{
			"id": 0,
			"time": 135,
			"enemyId": 208
		},
		{
			"id": 0,
			"time": 145,
			"enemyId": 203
		},
		{
			"id": 0,
			"time": 155,
			"enemyId": 204
		},
		{
			"id": 0,
			"time": 165,
			"enemyId": 205
		},
		{
			"id": 0,
			"time": 175,
			"enemyId": 206
		},
		{
			"id": 0,
			"time": 185,
			"enemyId": 203
		},
		{
			"id": 0,
			"time": 195,
			"enemyId": 205
		},
		{
			"id": 0,
			"time": 205,
			"enemyId": 203
		},
		{
			"id": 0,
			"time": 215,
			"enemyId": 203
		},
		{
			"id": 0,
			"time": 225,
			"enemyId": 205
		},
		{
			"id": 0,
			"time": 235,
			"enemyId": 206
		},
		{
			"id": 0,
			"time": 245,
			"enemyId": 207
		},
		{
			"id": 0,
			"time": 255,
			"enemyId": 204
		},
		{
			"id": 0,
			"time": 265,
			"enemyId": 205
		},
		{
			"id": 0,
			"time": 275,
			"enemyId": 206
		},
		{
			"id": 0,
			"time": 285,
			"enemyId": 205
		},
		{
			"id": 0,
			"time": 295,
			"enemyId": 207
		},
		{
			"id": 0,
			"time": 305,
			"enemyId": 203
		},
		{
			"id": 0,
			"time": 315,
			"enemyId": 208
		},
		{
			"id": 0,
			"time": 325,
			"enemyId": 204
		}
	]
}