{
	"patterns": [
		{
			"id": 0,
			"time": 4,
			"enemyId": 203
		},
		{
			"id": 0,
			"time": 8,
			"enemyId": 203
		},
		{
			"id": 0,
			"time": 12,
			"enemyId": 203
		},
		{
			"id": 0,
			"time": 16,
			"enemyId": 203
		},
		{
			"id": 0,
			"time": 20,
			"enemyId": 203
		},
		{
			"id": 0,
			"time": 24,
			"enemyId": 203
		},
		{
			"id": 0,
			"time": 28,
			"enemyId": 203
		},
		{
			"id": 0,
			"time": 32,
			"enemyId": 203
		},
		{
			"id": 0,
			"time": 36,
			"enemyId": 203
		},
		{
			"id": 0,
			"time": 40,
			"enemyId": 203
		},
		{
			"id": 0,
			"time": 44,
			"enemyId": 203
		},
		{
			"id": 0,
			"time": 48,
			"enemyId": 203
		},
		{
			"id": 0,
			"time": 52,
			"enemyId": 203
		},
		{
			"id": 0,
			"time": 56,
			"enemyId": 203
		},
		{
			"id": 0,
			"time": 60,
			"enemyId": 203
		},
		{
			"id": 0,
			"time": 64,
			"enemyId": 203
		},
		{
			"id": 0,
			"time": 68,
			"enemyId": 203
		},
		{
			"id": 0,
			"time": 72,
			"enemyId": 203
		},
		{
			"id": 0,
			"time": 76,
			"enemyId": 203
		},
		{
			"id": 0,
			"time": 80,
			"enemyId": 203
		},
		{
			"id": 0,
			"time": 84,
			"enemyId": 203
		},
		{
			"id": 0,
			"time": 88,
			"enemyId": 203
		},
		{
			"id": 0,
			"time": 92,
			"enemyId": 203
		},
		{
			"id": 0,
			"time": 96,
			"enemyId": 203
		},
		{
			"id": 0,
			"time": 100,
			"enemyId": 203
		},
		{
			"id": 0,
			"time": 104,
			"enemyId": 203
		},
		{
			"id": 0,
			"time": 108,
			"enemyId": 203
		},
		{
			"id": 0,
			"time": 112,
			"enemyId": 203
		},
		{
			"id": 0,
			"time": 116,
			"enemyId": 203
		},
		{
			"id": 0,
			"time": 120,
			"enemyId": 203
		},
		{
			"id": 0,
			"time": 124,
			"enemyId": 203
		},
		{
			"id": 0,
			"time": 128,
			"enemyId": 203
		},
		{
			"id": 0,
			"time": 132,
			"enemyId": 203
		}
	]
}