{
	"patterns": [
		{
			"id": 0,
			"time": 2,
			"enemyId": 203
		},
		{
			"id": 0,
			"time": 14,
			"enemyId": 203
		},
		{
			"id": 0,
			"time": 24,
			"enemyId": 204
		},
		{
			"id": 0,
			"time": 34,
			"enemyId": 208
		},
		{
			"id": 0,
			"time": 44,
			"enemyId": 205
		},
		{
			"id": 0,
			"time": 54,
			"enemyId": 207
		},
		{
			"id": 0,
			"time": 64,
			"enemyId": 203
		},
		{
			"id": 0,
			"time": 74,
			"enemyId": 205
		},
		{
			"id": 0,
			"time": 84,
			"enemyId": 206
		},
		{
			"id": 0,
			"time": 84,
			"enemyId": 205
		},
		{
			"id": 0,
			"time": 94,
			"enemyId": 208
		},
		{
			"id": 0,
			"time": 104,
			"enemyId": 205
		},
		{
			"id": 0,
			"time": 114,
			"enemyId": 203
		},
		{
			"id": 0,
			"time": 124,
			"enemyId": 207
		},
		{
			"id": 0,
			"time": 134,
			"enemyId": 204
		},
		{
			"id": 0,
			"time": 144,
			"enemyId": 206
		},
		{
			"id": 0,
			"time": 154,
			"enemyId": 203
		},
		{
			"id": 0,
			"time": 158,
			"enemyId": 208
		},
		{
			"id": 0,
			"time": 168,
			"enemyId": 206
		},
		{
			"id": 0,
			"time": 178,
			"enemyId": 207
		},
		{
			"id": 0,
			"time": 188,
			"enemyId": 204
		},
		{
			"id": 0,
			"time": 198,
			"enemyId": 205
		},
		{
			"id": 0,
			"time": 200,
			"enemyId": 203
		},
		{
			"id": 0,
			"time": 210,
			"enemyId": 204
		},
		{
			"id": 0,
			"time": 220,
			"enemyId": 206
		},
		{
			"id": 0,
			"time": 230,
			"enemyId": 207
		},
		{
			"id": 0,
			"time": 240,
			"enemyId": 204
		},
		{
			"id": 0,
			"time": 250,
			"enemyId": 203
		},
		{
			"id": 0,
			"time": 260,
			"enemyId": 208
		},
		{
			"id": 0,
			"time": 270,
			"enemyId": 204
		},
		{
			"id": 0,
			"time": 280,
			"enemyId": 206
		},
		{
			"id": 0,
			"time": 290,
			"enemyId": 205
		},
		{
			"id": 0,
			"time": 300,
			"enemyId": 203
		},
		{
			"id": 0,
			"time": 310,
			"enemyId": 204
		},
		{
			"id": 0,
			"time": 320,
			"enemyId": 203
		},
		{
			"id": 0,
			"time": 330,
			"enemyId": 205
		},
		{
			"id": 0,
			"time": 340,
			"enemyId": 203
		},
		{
			"id": 0,
			"time": 345,
			"enemyId": 204
		},
		{
			"id": 0,
			"time": 355,
			"enemyId": 205
		},
		{
			"id": 0,
			"time": 365,
			"enemyId": 203
		},
		{
			"id": 0,
			"time": 375,
			"enemyId": 203
		},
		{
			"id": 0,
			"time": 383,
			"enemyId": 207
		},
		{
			"id": 0,
			"time": 391,
			"enemyId": 205
		},
		{
			"id": 0,
			"time": 399,
			"enemyId": 203
		},
		{
			"id": 0,
			"time": 407,
			"enemyId": 204
		}
	]
}