{
	"patterns": [
		{
			"id": 0,
			"time": 10,
			"enemyId": 202
		},
		{
			"id": 0,
			"time": 14,
			"enemyId": 202
		},
		{
			"id": 0,
			"time": 18,
			"enemyId": 202
		},
		{
			"id": 0,
			"time": 22,
			"enemyId": 202
		},
		{
			"id": 0,
			"time": 26,
			"enemyId": 202
		},
		{
			"id": 0,
			"time": 30,
			"enemyId": 202
		},
		{
			"id": 0,
			"time": 34,
			"enemyId": 202
		},
		{
			"id": 0,
			"time": 38,
			"enemyId": 202
		},
		{
			"id": 0,
			"time": 42,
			"enemyId": 202
		},
		{
			"id": 0,
			"time": 46,
			"enemyId": 202
		},
		{
			"id": 0,
			"time": 50,
			"enemyId": 202
		},
		{
			"id": 0,
			"time": 54,
			"enemyId": 202
		},
		{
			"id": 0,
			"time": 58,
			"enemyId": 202
		},
		{
			"id": 0,
			"time": 62,
			"enemyId": 202
		},
		{
			"id": 0,
			"time": 66,
			"enemyId": 202
		},
		{
			"id": 0,
			"time": 70,
			"enemyId": 202
		},
		{
			"id": 0,
			"time": 74,
			"enemyId": 202
		},
		{
			"id": 0,
			"time": 78,
			"enemyId": 202
		},
		{
			"id": 0,
			"time": 82,
			"enemyId": 202
		},
		{
			"id": 0,
			"time": 86,
			"enemyId": 202
		},
		{
			"id": 0,
			"time": 90,
			"enemyId": 202
		},
		{
			"id": 0,
			"time": 94,
			"enemyId": 202
		},
		{
			"id": 0,
			"time": 98,
			"enemyId": 202
		},
		{
			"id": 0,
			"time": 102,
			"enemyId": 202
		},
		{
			"id": 0,
			"time": 106,
			"enemyId": 202
		},
		{
			"id": 0,
			"time": 110,
			"enemyId": 202
		},
		{
			"id": 0,
			"time": 114,
			"enemyId": 202
		},
		{
			"id": 0,
			"time": 118,
			"enemyId": 202
		},
		{
			"id": 0,
			"time": 122,
			"enemyId": 202
		},
		{
			"id": 0,
			"time": 126,
			"enemyId": 202
		},
		{
			"id": 0,
			"time": 130,
			"enemyId": 202
		},
		{
			"id": 0,
			"time": 134,
			"enemyId": 202
		}
	]
}